data/detuning_coil_curves/F0026CH1.CSV

Record Length,2.500000e+03,,  -6.960000000000,   0.09640,
Sample Interval,1.000000e-02,,  -6.950000000000,   0.09720,
Trigger Point,6.960000000000e+02,,  -6.940000000000,   0.09600,
,,,  -6.930000000000,   0.09400,
,,,  -6.920000000000,   0.09640,
,,,  -6.910000000000,   0.09720,
Source,CH1,,  -6.900000000000,   0.09640,
Vertical Units,V,,  -6.890000000000,   0.09520,
Vertical Scale,1.000000e-02,,  -6.880000000000,   0.09920,
Vertical Offset,-7.520000e-02,,  -6.870000000000,   0.09680,
Horizontal Units,s,,  -6.860000000000,   0.09880,
Horizontal Scale,2.500000e+00,,  -6.850000000000,   0.09360,
Pt Fmt,Y,,  -6.840000000000,   0.09880,
Yzero,0.000000e+00,,  -6.830000000000,   0.09640,
Probe Atten,1.000000e+00,,  -6.820000000000,   0.09480,
Model Number,TDS2001C,,  -6.810000000000,   0.09800,
Serial Number,C012118,,  -6.800000000000,   0.09680,
Firmware Version,FV:v24.15,,  -6.790000000000,   0.09760,
,,,-06.780000000000,   0.09760,
,,,-06.770000000000,   0.09720,
,,,-06.760000000000,   0.09560,
,,,-06.750000000000,   0.09520,
,,,-06.740000000000,   0.09800,
,,,-06.730000000000,   0.09520,
,,,-06.720000000000,   0.09760,
,,,-06.710000000000,   0.09680,
,,,-06.700000000000,   0.09560,
,,,-06.690000000000,   0.10040,
,,,-06.680000000000,   0.09760,
,,,-06.670000000000,   0.10000,
,,,-06.660000000000,   0.09800,
,,,-06.650000000000,   0.09640,
,,,-06.640000000000,   0.09720,
,,,-06.630000000000,   0.09880,
,,,-06.620000000000,   0.09720,
,,,-06.610000000000,   0.09640,
,,,-06.600000000000,   0.09800,
,,,-06.590000000000,   0.09600,
,,,-06.580000000000,   0.10000,
,,,-06.570000000000,   0.09720,
,,,-06.560000000000,   0.09760,
,,,-06.550000000000,   0.09440,
,,,-06.540000000000,   0.10040,
,,,-06.530000000000,   0.10000,
,,,-06.520000000000,   0.09480,
,,,-06.510000000000,   0.09560,
,,,-06.500000000000,   0.09520,
,,,-06.490000000000,   0.09920,
,,,-06.480000000000,   0.09920,
,,,-06.470000000000,   0.09640,
,,,-06.460000000000,   0.09720,
,,,-06.450000000000,   0.09800,
,,,-06.440000000000,   0.09560,
,,,-06.430000000000,   0.09800,
,,,-06.420000000000,   0.09320,
,,,-06.410000000000,   0.09880,
,,,-06.400000000000,   0.09600,
,,,-06.390000000000,   0.09760,
,,,-06.380000000000,   0.09640,
,,,-06.370000000000,   0.09680,
,,,-06.360000000000,   0.09720,
,,,-06.350000000000,   0.09560,
,,,-06.340000000000,   0.09400,
,,,-06.330000000000,   0.09760,
,,,-06.320000000000,   0.10240,
,,,-06.310000000000,   0.09680,
,,,-06.300000000000,   0.09600,
,,,-06.290000000000,   0.09680,
,,,-06.280000000000,   0.09640,
,,,-06.270000000000,   0.09720,
,,,-06.260000000000,   0.09360,
,,,-06.250000000000,   0.09480,
,,,-06.240000000000,   0.09840,
,,,-06.230000000000,   0.09680,
,,,-06.220000000000,   0.10120,
,,,-06.210000000000,   0.10120,
,,,-06.200000000000,   0.09760,
,,,-06.190000000000,   0.09800,
,,,-06.180000000000,   0.09760,
,,,-06.170000000000,   0.09680,
,,,-06.160000000000,   0.09800,
,,,-06.150000000000,   0.09720,
,,,-06.140000000000,   0.09720,
,,,-06.130000000000,   0.09760,
,,,-06.120000000000,   0.09640,
,,,-06.110000000000,   0.09880,
,,,-06.100000000000,   0.09640,
,,,-06.090000000000,   0.09680,
,,,-06.080000000000,   0.09760,
,,,-06.070000000000,   0.09800,
,,,-06.060000000000,   0.09640,
,,,-06.050000000000,   0.09720,
,,,-06.040000000000,   0.09600,
,,,-06.030000000000,   0.09600,
,,,-06.020000000000,   0.09400,
,,,-06.010000000000,   0.09640,
,,,-06.000000000000,   0.09280,
,,,-05.990000000000,   0.09560,
,,,-05.980000000000,   0.09240,
,,,-05.970000000000,   0.10000,
,,,-05.960000000000,   0.09920,
,,,-05.950000000000,   0.09800,
,,,-05.940000000000,   0.10000,
,,,-05.930000000000,   0.09600,
,,,-05.920000000000,   0.09840,
,,,-05.910000000000,   0.09520,
,,,-05.900000000000,   0.09560,
,,,-05.890000000000,   0.09680,
,,,-05.880000000000,   0.09640,
,,,-05.870000000000,   0.09600,
,,,-05.860000000000,   0.09920,
,,,-05.850000000000,   0.10040,
,,,-05.840000000000,   0.09880,
,,,-05.830000000000,   0.09840,
,,,-05.820000000000,   0.09600,
,,,-05.810000000000,   0.09760,
,,,-05.800000000000,   0.09480,
,,,-05.790000000000,   0.09720,
,,,-05.780000000000,   0.09800,
,,,-05.770000000000,   0.09600,
,,,-05.760000000000,   0.09920,
,,,-05.750000000000,   0.09640,
,,,-05.740000000000,   0.09960,
,,,-05.730000000000,   0.09280,
,,,-05.720000000000,   0.09760,
,,,-05.710000000000,   0.09400,
,,,-05.700000000000,   0.09800,
,,,-05.690000000000,   0.09680,
,,,-05.680000000000,   0.09760,
,,,-05.670000000000,   0.09640,
,,,-05.660000000000,   0.10040,
,,,-05.650000000000,   0.09840,
,,,-05.640000000000,   0.10000,
,,,-05.630000000000,   0.09760,
,,,-05.620000000000,   0.09800,
,,,-05.610000000000,   0.09520,
,,,-05.600000000000,   0.09920,
,,,-05.590000000000,   0.10120,
,,,-05.580000000000,   0.09640,
,,,-05.570000000000,   0.09920,
,,,-05.560000000000,   0.09840,
,,,-05.550000000000,   0.09400,
,,,-05.540000000000,   0.09760,
,,,-05.530000000000,   0.09360,
,,,-05.520000000000,   0.09920,
,,,-05.510000000000,   0.09920,
,,,-05.500000000000,   0.10000,
,,,-05.490000000000,   0.09760,
,,,-05.480000000000,   0.09880,
,,,-05.470000000000,   0.09680,
,,,-05.460000000000,   0.09800,
,,,-05.450000000000,   0.10160,
,,,-05.440000000000,   0.09640,
,,,-05.430000000000,   0.09680,
,,,-05.420000000000,   0.09680,
,,,-05.410000000000,   0.09760,
,,,-05.400000000000,   0.09880,
,,,-05.390000000000,   0.09880,
,,,-05.380000000000,   0.10000,
,,,-05.370000000000,   0.09840,
,,,-05.360000000000,   0.09640,
,,,-05.350000000000,   0.09680,
,,,-05.340000000000,   0.09760,
,,,-05.330000000000,   0.09680,
,,,-05.320000000000,   0.09920,
,,,-05.310000000000,   0.09720,
,,,-05.300000000000,   0.09640,
,,,-05.290000000000,   0.09440,
,,,-05.280000000000,   0.09800,
,,,-05.270000000000,   0.09720,
,,,-05.260000000000,   0.09800,
,,,-05.250000000000,   0.09880,
,,,-05.240000000000,   0.09640,
,,,-05.230000000000,   0.09440,
,,,-05.220000000000,   0.09840,
,,,-05.210000000000,   0.09440,
,,,-05.200000000000,   0.09960,
,,,-05.190000000000,   0.09960,
,,,-05.180000000000,   0.09640,
,,,-05.170000000000,   0.09560,
,,,-05.160000000000,   0.10080,
,,,-05.150000000000,   0.09680,
,,,-05.140000000000,   0.09600,
,,,-05.130000000000,   0.09640,
,,,-05.120000000000,   0.09600,
,,,-05.110000000000,   0.09640,
,,,-05.100000000000,   0.09880,
,,,-05.090000000000,   0.09520,
,,,-05.080000000000,   0.09880,
,,,-05.070000000000,   0.09560,
,,,-05.060000000000,   0.09720,
,,,-05.050000000000,   0.09720,
,,,-05.040000000000,   0.10000,
,,,-05.030000000000,   0.09560,
,,,-05.020000000000,   0.09400,
,,,-05.010000000000,   0.09760,
,,,-05.000000000000,   0.09720,
,,,-04.990000000000,   0.09920,
,,,-04.980000000000,   0.09680,
,,,-04.970000000000,   0.09840,
,,,-04.960000000000,   0.09840,
,,,-04.950000000000,   0.09680,
,,,-04.940000000000,   0.09800,
,,,-04.930000000000,   0.09640,
,,,-04.920000000000,   0.09920,
,,,-04.910000000000,   0.09680,
,,,-04.900000000000,   0.09440,
,,,-04.890000000000,   0.10040,
,,,-04.880000000000,   0.09880,
,,,-04.870000000000,   0.09680,
,,,-04.860000000000,   0.09480,
,,,-04.850000000000,   0.09520,
,,,-04.840000000000,   0.09960,
,,,-04.830000000000,   0.09640,
,,,-04.820000000000,   0.09720,
,,,-04.810000000000,   0.09520,
,,,-04.800000000000,   0.09840,
,,,-04.790000000000,   0.10040,
,,,-04.780000000000,   0.09760,
,,,-04.770000000000,   0.09440,
,,,-04.760000000000,   0.09640,
,,,-04.750000000000,   0.09840,
,,,-04.740000000000,   0.09640,
,,,-04.730000000000,   0.09440,
,,,-04.720000000000,   0.09680,
,,,-04.710000000000,   0.09720,
,,,-04.700000000000,   0.09840,
,,,-04.690000000000,   0.09680,
,,,-04.680000000000,   0.09880,
,,,-04.670000000000,   0.09720,
,,,-04.660000000000,   0.10000,
,,,-04.650000000000,   0.09760,
,,,-04.640000000000,   0.09920,
,,,-04.630000000000,   0.09960,
,,,-04.620000000000,   0.09800,
,,,-04.610000000000,   0.09760,
,,,-04.600000000000,   0.09800,
,,,-04.590000000000,   0.09520,
,,,-04.580000000000,   0.09640,
,,,-04.570000000000,   0.10000,
,,,-04.560000000000,   0.09880,
,,,-04.550000000000,   0.09920,
,,,-04.540000000000,   0.09560,
,,,-04.530000000000,   0.09800,
,,,-04.520000000000,   0.09720,
,,,-04.510000000000,   0.09560,
,,,-04.500000000000,   0.09600,
,,,-04.490000000000,   0.09600,
,,,-04.480000000000,   0.09920,
,,,-04.470000000000,   0.09720,
,,,-04.460000000000,   0.09520,
,,,-04.450000000000,   0.09720,
,,,-04.440000000000,   0.09840,
,,,-04.430000000000,   0.09720,
,,,-04.420000000000,   0.09360,
,,,-04.410000000000,   0.09640,
,,,-04.400000000000,   0.09800,
,,,-04.390000000000,   0.09640,
,,,-04.380000000000,   0.09600,
,,,-04.370000000000,   0.09840,
,,,-04.360000000000,   0.09680,
,,,-04.350000000000,   0.09440,
,,,-04.340000000000,   0.09480,
,,,-04.330000000000,   0.09800,
,,,-04.320000000000,   0.09360,
,,,-04.310000000000,   0.09600,
,,,-04.300000000000,   0.09560,
,,,-04.290000000000,   0.09760,
,,,-04.280000000000,   0.09480,
,,,-04.270000000000,   0.09560,
,,,-04.260000000000,   0.09920,
,,,-04.250000000000,   0.09680,
,,,-04.240000000000,   0.09720,
,,,-04.230000000000,   0.09440,
,,,-04.220000000000,   0.09360,
,,,-04.210000000000,   0.09440,
,,,-04.200000000000,   0.09560,
,,,-04.190000000000,   0.09680,
,,,-04.180000000000,   0.10000,
,,,-04.170000000000,   0.09520,
,,,-04.160000000000,   0.09880,
,,,-04.150000000000,   0.09720,
,,,-04.140000000000,   0.09680,
,,,-04.130000000000,   0.09440,
,,,-04.120000000000,   0.09680,
,,,-04.110000000000,   0.09680,
,,,-04.100000000000,   0.09440,
,,,-04.090000000000,   0.09680,
,,,-04.080000000000,   0.09520,
,,,-04.070000000000,   0.09800,
,,,-04.060000000000,   0.09640,
,,,-04.050000000000,   0.09760,
,,,-04.040000000000,   0.09480,
,,,-04.030000000000,   0.09720,
,,,-04.020000000000,   0.09560,
,,,-04.010000000000,   0.09600,
,,,-04.000000000000,   0.09720,
,,,-03.990000000000,   0.10040,
,,,-03.980000000000,   0.09720,
,,,-03.970000000000,   0.09440,
,,,-03.960000000000,   0.09200,
,,,-03.950000000000,   0.09800,
,,,-03.940000000000,   0.09720,
,,,-03.930000000000,   0.09680,
,,,-03.920000000000,   0.09400,
,,,-03.910000000000,   0.09680,
,,,-03.900000000000,   0.09560,
,,,-03.890000000000,   0.09840,
,,,-03.880000000000,   0.09640,
,,,-03.870000000000,   0.09720,
,,,-03.860000000000,   0.09680,
,,,-03.850000000000,   0.09480,
,,,-03.840000000000,   0.09480,
,,,-03.830000000000,   0.09680,
,,,-03.820000000000,   0.09360,
,,,-03.810000000000,   0.09840,
,,,-03.800000000000,   0.09720,
,,,-03.790000000000,   0.09760,
,,,-03.780000000000,   0.09160,
,,,-03.770000000000,   0.09640,
,,,-03.760000000000,   0.09680,
,,,-03.750000000000,   0.09600,
,,,-03.740000000000,   0.09560,
,,,-03.730000000000,   0.09560,
,,,-03.720000000000,   0.09560,
,,,-03.710000000000,   0.09680,
,,,-03.700000000000,   0.09760,
,,,-03.690000000000,   0.09600,
,,,-03.680000000000,   0.09480,
,,,-03.670000000000,   0.09680,
,,,-03.660000000000,   0.09680,
,,,-03.650000000000,   0.09960,
,,,-03.640000000000,   0.09880,
,,,-03.630000000000,   0.09640,
,,,-03.620000000000,   0.10000,
,,,-03.610000000000,   0.09480,
,,,-03.600000000000,   0.09600,
,,,-03.590000000000,   0.09720,
,,,-03.580000000000,   0.09560,
,,,-03.570000000000,   0.09600,
,,,-03.560000000000,   0.09840,
,,,-03.550000000000,   0.09720,
,,,-03.540000000000,   0.09360,
,,,-03.530000000000,   0.09560,
,,,-03.520000000000,   0.09640,
,,,-03.510000000000,   0.09400,
,,,-03.500000000000,   0.09600,
,,,-03.490000000000,   0.09560,
,,,-03.480000000000,   0.09680,
,,,-03.470000000000,   0.09760,
,,,-03.460000000000,   0.09400,
,,,-03.450000000000,   0.09640,
,,,-03.440000000000,   0.09800,
,,,-03.430000000000,   0.09440,
,,,-03.420000000000,   0.09800,
,,,-03.410000000000,   0.09600,
,,,-03.400000000000,   0.09560,
,,,-03.390000000000,   0.09760,
,,,-03.380000000000,   0.09640,
,,,-03.370000000000,   0.09720,
,,,-03.360000000000,   0.09720,
,,,-03.350000000000,   0.09760,
,,,-03.340000000000,   0.09600,
,,,-03.330000000000,   0.09640,
,,,-03.320000000000,   0.09440,
,,,-03.310000000000,   0.09560,
,,,-03.300000000000,   0.09520,
,,,-03.290000000000,   0.09800,
,,,-03.280000000000,   0.09840,
,,,-03.270000000000,   0.09960,
,,,-03.260000000000,   0.09640,
,,,-03.250000000000,   0.09880,
,,,-03.240000000000,   0.09760,
,,,-03.230000000000,   0.09680,
,,,-03.220000000000,   0.09720,
,,,-03.210000000000,   0.09840,
,,,-03.200000000000,   0.09560,
,,,-03.190000000000,   0.09480,
,,,-03.180000000000,   0.09400,
,,,-03.170000000000,   0.09560,
,,,-03.160000000000,   0.10040,
,,,-03.150000000000,   0.10000,
,,,-03.140000000000,   0.09560,
,,,-03.130000000000,   0.09960,
,,,-03.120000000000,   0.09480,
,,,-03.110000000000,   0.09560,
,,,-03.100000000000,   0.09640,
,,,-03.090000000000,   0.09720,
,,,-03.080000000000,   0.09600,
,,,-03.070000000000,   0.09400,
,,,-03.060000000000,   0.09640,
,,,-03.050000000000,   0.09400,
,,,-03.040000000000,   0.09640,
,,,-03.030000000000,   0.09520,
,,,-03.020000000000,   0.09720,
,,,-03.010000000000,   0.09600,
,,,-03.000000000000,   0.09480,
,,,-02.990000000000,   0.09640,
,,,-02.980000000000,   0.09680,
,,,-02.970000000000,   0.09640,
,,,-02.960000000000,   0.09520,
,,,-02.950000000000,   0.09760,
,,,-02.940000000000,   0.09760,
,,,-02.930000000000,   0.09720,
,,,-02.920000000000,   0.09640,
,,,-02.910000000000,   0.09680,
,,,-02.900000000000,   0.09280,
,,,-02.890000000000,   0.09600,
,,,-02.880000000000,   0.09880,
,,,-02.870000000000,   0.09680,
,,,-02.860000000000,   0.09600,
,,,-02.850000000000,   0.10000,
,,,-02.840000000000,   0.09560,
,,,-02.830000000000,   0.09800,
,,,-02.820000000000,   0.09680,
,,,-02.810000000000,   0.09560,
,,,-02.800000000000,   0.09840,
,,,-02.790000000000,   0.09880,
,,,-02.780000000000,   0.09480,
,,,-02.770000000000,   0.09560,
,,,-02.760000000000,   0.09640,
,,,-02.750000000000,   0.09600,
,,,-02.740000000000,   0.09680,
,,,-02.730000000000,   0.09920,
,,,-02.720000000000,   0.09760,
,,,-02.710000000000,   0.09720,
,,,-02.700000000000,   0.09800,
,,,-02.690000000000,   0.09560,
,,,-02.680000000000,   0.09520,
,,,-02.670000000000,   0.09560,
,,,-02.660000000000,   0.09480,
,,,-02.650000000000,   0.09600,
,,,-02.640000000000,   0.09760,
,,,-02.630000000000,   0.09520,
,,,-02.620000000000,   0.09640,
,,,-02.610000000000,   0.09880,
,,,-02.600000000000,   0.09560,
,,,-02.590000000000,   0.09640,
,,,-02.580000000000,   0.09560,
,,,-02.570000000000,   0.09960,
,,,-02.560000000000,   0.09520,
,,,-02.550000000000,   0.09520,
,,,-02.540000000000,   0.09320,
,,,-02.530000000000,   0.09440,
,,,-02.520000000000,   0.09160,
,,,-02.510000000000,   0.09520,
,,,-02.500000000000,   0.09600,
,,,-02.490000000000,   0.09560,
,,,-02.480000000000,   0.09640,
,,,-02.470000000000,   0.09600,
,,,-02.460000000000,   0.09920,
,,,-02.450000000000,   0.09920,
,,,-02.440000000000,   0.09880,
,,,-02.430000000000,   0.09400,
,,,-02.420000000000,   0.09320,
,,,-02.410000000000,   0.09480,
,,,-02.400000000000,   0.09360,
,,,-02.390000000000,   0.09640,
,,,-02.380000000000,   0.09680,
,,,-02.370000000000,   0.09640,
,,,-02.360000000000,   0.09760,
,,,-02.350000000000,   0.09600,
,,,-02.340000000000,   0.09600,
,,,-02.330000000000,   0.09480,
,,,-02.320000000000,   0.09400,
,,,-02.310000000000,   0.09760,
,,,-02.300000000000,   0.09680,
,,,-02.290000000000,   0.09600,
,,,-02.280000000000,   0.09640,
,,,-02.270000000000,   0.09600,
,,,-02.260000000000,   0.09920,
,,,-02.250000000000,   0.09760,
,,,-02.240000000000,   0.09560,
,,,-02.230000000000,   0.09680,
,,,-02.220000000000,   0.09840,
,,,-02.210000000000,   0.09640,
,,,-02.200000000000,   0.09320,
,,,-02.190000000000,   0.09760,
,,,-02.180000000000,   0.09760,
,,,-02.170000000000,   0.09440,
,,,-02.160000000000,   0.09520,
,,,-02.150000000000,   0.09760,
,,,-02.140000000000,   0.09760,
,,,-02.130000000000,   0.09480,
,,,-02.120000000000,   0.09640,
,,,-02.110000000000,   0.09640,
,,,-02.100000000000,   0.09560,
,,,-02.090000000000,   0.09520,
,,,-02.080000000000,   0.09560,
,,,-02.070000000000,   0.09520,
,,,-02.060000000000,   0.09240,
,,,-02.050000000000,   0.09880,
,,,-02.040000000000,   0.09600,
,,,-02.030000000000,   0.09560,
,,,-02.020000000000,   0.09520,
,,,-02.010000000000,   0.09560,
,,,-02.000000000000,   0.09520,
,,,-01.990000000000,   0.09520,
,,,-01.980000000000,   0.09760,
,,,-01.970000000000,   0.09480,
,,,-01.960000000000,   0.09600,
,,,-01.950000000000,   0.09440,
,,,-01.940000000000,   0.09760,
,,,-01.930000000000,   0.09560,
,,,-01.920000000000,   0.09520,
,,,-01.910000000000,   0.09680,
,,,-01.900000000000,   0.09640,
,,,-01.890000000000,   0.09880,
,,,-01.880000000000,   0.10040,
,,,-01.870000000000,   0.09680,
,,,-01.860000000000,   0.09640,
,,,-01.850000000000,   0.09600,
,,,-01.840000000000,   0.09560,
,,,-01.830000000000,   0.09240,
,,,-01.820000000000,   0.09400,
,,,-01.810000000000,   0.09560,
,,,-01.800000000000,   0.09640,
,,,-01.790000000000,   0.09680,
,,,-01.780000000000,   0.09760,
,,,-01.770000000000,   0.09800,
,,,-01.760000000000,   0.09680,
,,,-01.750000000000,   0.09400,
,,,-01.740000000000,   0.09480,
,,,-01.730000000000,   0.09560,
,,,-01.720000000000,   0.09520,
,,,-01.710000000000,   0.09440,
,,,-01.700000000000,   0.09720,
,,,-01.690000000000,   0.09520,
,,,-01.680000000000,   0.09360,
,,,-01.670000000000,   0.09680,
,,,-01.660000000000,   0.09640,
,,,-01.650000000000,   0.09320,
,,,-01.640000000000,   0.09680,
,,,-01.630000000000,   0.09680,
,,,-01.620000000000,   0.09880,
,,,-01.610000000000,   0.09680,
,,,-01.600000000000,   0.10120,
,,,-01.590000000000,   0.09640,
,,,-01.580000000000,   0.09680,
,,,-01.570000000000,   0.09800,
,,,-01.560000000000,   0.09800,
,,,-01.550000000000,   0.09800,
,,,-01.540000000000,   0.09600,
,,,-01.530000000000,   0.09480,
,,,-01.520000000000,   0.09520,
,,,-01.510000000000,   0.09720,
,,,-01.500000000000,   0.09680,
,,,-01.490000000000,   0.09720,
,,,-01.480000000000,   0.10200,
,,,-01.470000000000,   0.09560,
,,,-01.460000000000,   0.09880,
,,,-01.450000000000,   0.09680,
,,,-01.440000000000,   0.09480,
,,,-01.430000000000,   0.09800,
,,,-01.420000000000,   0.09720,
,,,-01.410000000000,   0.09400,
,,,-01.400000000000,   0.09360,
,,,-01.390000000000,   0.09320,
,,,-01.380000000000,   0.09640,
,,,-01.370000000000,   0.09840,
,,,-01.360000000000,   0.09680,
,,,-01.350000000000,   0.09280,
,,,-01.340000000000,   0.09600,
,,,-01.330000000000,   0.09520,
,,,-01.320000000000,   0.09640,
,,,-01.310000000000,   0.09360,
,,,-01.300000000000,   0.09720,
,,,-01.290000000000,   0.09560,
,,,-01.280000000000,   0.09360,
,,,-01.270000000000,   0.09760,
,,,-01.260000000000,   0.09600,
,,,-01.250000000000,   0.09680,
,,,-01.240000000000,   0.09640,
,,,-01.230000000000,   0.09600,
,,,-01.220000000000,   0.09640,
,,,-01.210000000000,   0.09200,
,,,-01.200000000000,   0.09320,
,,,-01.190000000000,   0.09520,
,,,-01.180000000000,   0.09680,
,,,-01.170000000000,   0.09880,
,,,-01.160000000000,   0.09680,
,,,-01.150000000000,   0.09560,
,,,-01.140000000000,   0.09840,
,,,-01.130000000000,   0.09480,
,,,-01.120000000000,   0.09520,
,,,-01.110000000000,   0.09960,
,,,-01.100000000000,   0.09560,
,,,-01.090000000000,   0.09280,
,,,-01.080000000000,   0.09480,
,,,-01.070000000000,   0.09680,
,,,-01.060000000000,   0.09320,
,,,-01.050000000000,   0.09360,
,,,-01.040000000000,   0.09240,
,,,-01.030000000000,   0.09320,
,,,-01.020000000000,   0.09320,
,,,-01.010000000000,   0.09720,
,,,-01.000000000000,   0.09320,
,,,-00.990000000000,   0.09520,
,,,-00.980000000000,   0.09480,
,,,-00.970000000000,   0.09440,
,,,-00.960000000000,   0.09640,
,,,-00.950000000000,   0.09600,
,,,-00.940000000000,   0.09800,
,,,-00.930000000000,   0.09600,
,,,-00.920000000000,   0.09480,
,,,-00.910000000000,   0.09480,
,,,-00.900000000000,   0.09960,
,,,-00.890000000000,   0.09560,
,,,-00.880000000000,   0.09560,
,,,-00.870000000000,   0.09200,
,,,-00.860000000000,   0.09560,
,,,-00.850000000000,   0.09720,
,,,-00.840000000000,   0.09680,
,,,-00.830000000000,   0.09760,
