data/detuning_coil_curves/F0027CH1.CSV

Record Length,2.500000e+03,,  -6.960000000000,   0.08560,
Sample Interval,1.000000e-02,,  -6.950000000000,   0.08880,
Trigger Point,6.960000000000e+02,,  -6.940000000000,   0.08720,
,,,  -6.930000000000,   0.08720,
,,,  -6.920000000000,   0.09120,
,,,  -6.910000000000,   0.09000,
Source,CH1,,  -6.900000000000,   0.08880,
Vertical Units,V,,  -6.890000000000,   0.09040,
Vertical Scale,1.000000e-02,,  -6.880000000000,   0.08960,
Vertical Offset,-7.520000e-02,,  -6.870000000000,   0.08680,
Horizontal Units,s,,  -6.860000000000,   0.08440,
Horizontal Scale,2.500000e+00,,  -6.850000000000,   0.08960,
Pt Fmt,Y,,  -6.840000000000,   0.09040,
Yzero,0.000000e+00,,  -6.830000000000,   0.08880,
Probe Atten,1.000000e+00,,  -6.820000000000,   0.08920,
Model Number,TDS2001C,,  -6.810000000000,   0.09000,
Serial Number,C012118,,  -6.800000000000,   0.09000,
Firmware Version,FV:v24.15,,  -6.790000000000,   0.08480,
,,,-06.780000000000,   0.09120,
,,,-06.770000000000,   0.09040,
,,,-06.760000000000,   0.08960,
,,,-06.750000000000,   0.09160,
,,,-06.740000000000,   0.08920,
,,,-06.730000000000,   0.09040,
,,,-06.720000000000,   0.08840,
,,,-06.710000000000,   0.08920,
,,,-06.700000000000,   0.08840,
,,,-06.690000000000,   0.09160,
,,,-06.680000000000,   0.08760,
,,,-06.670000000000,   0.08520,
,,,-06.660000000000,   0.08880,
,,,-06.650000000000,   0.08920,
,,,-06.640000000000,   0.08880,
,,,-06.630000000000,   0.08920,
,,,-06.620000000000,   0.09000,
,,,-06.610000000000,   0.08920,
,,,-06.600000000000,   0.09080,
,,,-06.590000000000,   0.08880,
,,,-06.580000000000,   0.08680,
,,,-06.570000000000,   0.09160,
,,,-06.560000000000,   0.08920,
,,,-06.550000000000,   0.08880,
,,,-06.540000000000,   0.08840,
,,,-06.530000000000,   0.09120,
,,,-06.520000000000,   0.09040,
,,,-06.510000000000,   0.09160,
,,,-06.500000000000,   0.09120,
,,,-06.490000000000,   0.09000,
,,,-06.480000000000,   0.09120,
,,,-06.470000000000,   0.08840,
,,,-06.460000000000,   0.08840,
,,,-06.450000000000,   0.08680,
,,,-06.440000000000,   0.08880,
,,,-06.430000000000,   0.08960,
,,,-06.420000000000,   0.08960,
,,,-06.410000000000,   0.09280,
,,,-06.400000000000,   0.09000,
,,,-06.390000000000,   0.09040,
,,,-06.380000000000,   0.08920,
,,,-06.370000000000,   0.09080,
,,,-06.360000000000,   0.09080,
,,,-06.350000000000,   0.08840,
,,,-06.340000000000,   0.09240,
,,,-06.330000000000,   0.08880,
,,,-06.320000000000,   0.09080,
,,,-06.310000000000,   0.09000,
,,,-06.300000000000,   0.08960,
,,,-06.290000000000,   0.08960,
,,,-06.280000000000,   0.08880,
,,,-06.270000000000,   0.08960,
,,,-06.260000000000,   0.09120,
,,,-06.250000000000,   0.09040,
,,,-06.240000000000,   0.08960,
,,,-06.230000000000,   0.08800,
,,,-06.220000000000,   0.09120,
,,,-06.210000000000,   0.08920,
,,,-06.200000000000,   0.08960,
,,,-06.190000000000,   0.08960,
,,,-06.180000000000,   0.09000,
,,,-06.170000000000,   0.08840,
,,,-06.160000000000,   0.08720,
,,,-06.150000000000,   0.09200,
,,,-06.140000000000,   0.08800,
,,,-06.130000000000,   0.09200,
,,,-06.120000000000,   0.08880,
,,,-06.110000000000,   0.09080,
,,,-06.100000000000,   0.08760,
,,,-06.090000000000,   0.08680,
,,,-06.080000000000,   0.08600,
,,,-06.070000000000,   0.08840,
,,,-06.060000000000,   0.08840,
,,,-06.050000000000,   0.08960,
,,,-06.040000000000,   0.08880,
,,,-06.030000000000,   0.08760,
,,,-06.020000000000,   0.09120,
,,,-06.010000000000,   0.09000,
,,,-06.000000000000,   0.08840,
,,,-05.990000000000,   0.08960,
,,,-05.980000000000,   0.09040,
,,,-05.970000000000,   0.09000,
,,,-05.960000000000,   0.09120,
,,,-05.950000000000,   0.08640,
,,,-05.940000000000,   0.08920,
,,,-05.930000000000,   0.08840,
,,,-05.920000000000,   0.08960,
,,,-05.910000000000,   0.08840,
,,,-05.900000000000,   0.09080,
,,,-05.890000000000,   0.09120,
,,,-05.880000000000,   0.08680,
,,,-05.870000000000,   0.08800,
,,,-05.860000000000,   0.09040,
,,,-05.850000000000,   0.09000,
,,,-05.840000000000,   0.09080,
,,,-05.830000000000,   0.09040,
,,,-05.820000000000,   0.09160,
,,,-05.810000000000,   0.09120,
,,,-05.800000000000,   0.08920,
,,,-05.790000000000,   0.08760,
,,,-05.780000000000,   0.08760,
,,,-05.770000000000,   0.08680,
,,,-05.760000000000,   0.08800,
,,,-05.750000000000,   0.08680,
,,,-05.740000000000,   0.08880,
,,,-05.730000000000,   0.09040,
,,,-05.720000000000,   0.08960,
,,,-05.710000000000,   0.08800,
,,,-05.700000000000,   0.09000,
,,,-05.690000000000,   0.09120,
,,,-05.680000000000,   0.09120,
,,,-05.670000000000,   0.08680,
,,,-05.660000000000,   0.09120,
,,,-05.650000000000,   0.08960,
,,,-05.640000000000,   0.09000,
,,,-05.630000000000,   0.09120,
,,,-05.620000000000,   0.08720,
,,,-05.610000000000,   0.09120,
,,,-05.600000000000,   0.09320,
,,,-05.590000000000,   0.09280,
,,,-05.580000000000,   0.09200,
,,,-05.570000000000,   0.09040,
,,,-05.560000000000,   0.08960,
,,,-05.550000000000,   0.08840,
,,,-05.540000000000,   0.09040,
,,,-05.530000000000,   0.08720,
,,,-05.520000000000,   0.09040,
,,,-05.510000000000,   0.09000,
,,,-05.500000000000,   0.09120,
,,,-05.490000000000,   0.09040,
,,,-05.480000000000,   0.09200,
,,,-05.470000000000,   0.08960,
,,,-05.460000000000,   0.09360,
,,,-05.450000000000,   0.08720,
,,,-05.440000000000,   0.09040,
,,,-05.430000000000,   0.08920,
,,,-05.420000000000,   0.09080,
,,,-05.410000000000,   0.09000,
,,,-05.400000000000,   0.08760,
,,,-05.390000000000,   0.09000,
,,,-05.380000000000,   0.08880,
,,,-05.370000000000,   0.09120,
,,,-05.360000000000,   0.08720,
,,,-05.350000000000,   0.08840,
,,,-05.340000000000,   0.08880,
,,,-05.330000000000,   0.09320,
,,,-05.320000000000,   0.09000,
,,,-05.310000000000,   0.08920,
,,,-05.300000000000,   0.08680,
,,,-05.290000000000,   0.09000,
,,,-05.280000000000,   0.09040,
,,,-05.270000000000,   0.08880,
,,,-05.260000000000,   0.09080,
,,,-05.250000000000,   0.08960,
,,,-05.240000000000,   0.09280,
,,,-05.230000000000,   0.08800,
,,,-05.220000000000,   0.09000,
,,,-05.210000000000,   0.09000,
,,,-05.200000000000,   0.09040,
,,,-05.190000000000,   0.09080,
,,,-05.180000000000,   0.08880,
,,,-05.170000000000,   0.08840,
,,,-05.160000000000,   0.09080,
,,,-05.150000000000,   0.09120,
,,,-05.140000000000,   0.09040,
,,,-05.130000000000,   0.09120,
,,,-05.120000000000,   0.09000,
,,,-05.110000000000,   0.08800,
,,,-05.100000000000,   0.09160,
,,,-05.090000000000,   0.08880,
,,,-05.080000000000,   0.08640,
,,,-05.070000000000,   0.09000,
,,,-05.060000000000,   0.09120,
,,,-05.050000000000,   0.08520,
,,,-05.040000000000,   0.08800,
,,,-05.030000000000,   0.08840,
,,,-05.020000000000,   0.08880,
,,,-05.010000000000,   0.09120,
,,,-05.000000000000,   0.08760,
,,,-04.990000000000,   0.09240,
,,,-04.980000000000,   0.08920,
,,,-04.970000000000,   0.09040,
,,,-04.960000000000,   0.09280,
,,,-04.950000000000,   0.09160,
,,,-04.940000000000,   0.08720,
,,,-04.930000000000,   0.08760,
,,,-04.920000000000,   0.09000,
,,,-04.910000000000,   0.09120,
,,,-04.900000000000,   0.08760,
,,,-04.890000000000,   0.09000,
,,,-04.880000000000,   0.08960,
,,,-04.870000000000,   0.08760,
,,,-04.860000000000,   0.09080,
,,,-04.850000000000,   0.09040,
,,,-04.840000000000,   0.08760,
,,,-04.830000000000,   0.08960,
,,,-04.820000000000,   0.08600,
,,,-04.810000000000,   0.09000,
,,,-04.800000000000,   0.08920,
,,,-04.790000000000,   0.08760,
,,,-04.780000000000,   0.09000,
,,,-04.770000000000,   0.09080,
,,,-04.760000000000,   0.09400,
,,,-04.750000000000,   0.08960,
,,,-04.740000000000,   0.09440,
,,,-04.730000000000,   0.09040,
,,,-04.720000000000,   0.09280,
,,,-04.710000000000,   0.09000,
,,,-04.700000000000,   0.09120,
,,,-04.690000000000,   0.09200,
,,,-04.680000000000,   0.08960,
,,,-04.670000000000,   0.09000,
,,,-04.660000000000,   0.08960,
,,,-04.650000000000,   0.09040,
,,,-04.640000000000,   0.08960,
,,,-04.630000000000,   0.08760,
,,,-04.620000000000,   0.09160,
,,,-04.610000000000,   0.08920,
,,,-04.600000000000,   0.08920,
,,,-04.590000000000,   0.08760,
,,,-04.580000000000,   0.09040,
,,,-04.570000000000,   0.09080,
,,,-04.560000000000,   0.09080,
,,,-04.550000000000,   0.08840,
,,,-04.540000000000,   0.09240,
,,,-04.530000000000,   0.09120,
,,,-04.520000000000,   0.09000,
,,,-04.510000000000,   0.09120,
,,,-04.500000000000,   0.09040,
,,,-04.490000000000,   0.09120,
,,,-04.480000000000,   0.08840,
,,,-04.470000000000,   0.09120,
,,,-04.460000000000,   0.08960,
,,,-04.450000000000,   0.09160,
,,,-04.440000000000,   0.09040,
,,,-04.430000000000,   0.09240,
,,,-04.420000000000,   0.09000,
,,,-04.410000000000,   0.09200,
,,,-04.400000000000,   0.09080,
,,,-04.390000000000,   0.09160,
,,,-04.380000000000,   0.09440,
,,,-04.370000000000,   0.08920,
,,,-04.360000000000,   0.08960,
,,,-04.350000000000,   0.09080,
,,,-04.340000000000,   0.08760,
,,,-04.330000000000,   0.08880,
,,,-04.320000000000,   0.09080,
,,,-04.310000000000,   0.09000,
,,,-04.300000000000,   0.09440,
,,,-04.290000000000,   0.09160,
,,,-04.280000000000,   0.08760,
,,,-04.270000000000,   0.08760,
,,,-04.260000000000,   0.08640,
,,,-04.250000000000,   0.09000,
,,,-04.240000000000,   0.08840,
,,,-04.230000000000,   0.09040,
,,,-04.220000000000,   0.08920,
,,,-04.210000000000,   0.09120,
,,,-04.200000000000,   0.08960,
,,,-04.190000000000,   0.08920,
,,,-04.180000000000,   0.09000,
,,,-04.170000000000,   0.08800,
,,,-04.160000000000,   0.08840,
,,,-04.150000000000,   0.09120,
,,,-04.140000000000,   0.09000,
,,,-04.130000000000,   0.08840,
,,,-04.120000000000,   0.08920,
,,,-04.110000000000,   0.09120,
,,,-04.100000000000,   0.08840,
,,,-04.090000000000,   0.08800,
,,,-04.080000000000,   0.08840,
,,,-04.070000000000,   0.08440,
,,,-04.060000000000,   0.08920,
,,,-04.050000000000,   0.09200,
,,,-04.040000000000,   0.08760,
,,,-04.030000000000,   0.08600,
,,,-04.020000000000,   0.09000,
,,,-04.010000000000,   0.09200,
,,,-04.000000000000,   0.08960,
,,,-03.990000000000,   0.09200,
,,,-03.980000000000,   0.08960,
,,,-03.970000000000,   0.09000,
,,,-03.960000000000,   0.08920,
,,,-03.950000000000,   0.08920,
,,,-03.940000000000,   0.08880,
,,,-03.930000000000,   0.08880,
,,,-03.920000000000,   0.08960,
,,,-03.910000000000,   0.08960,
,,,-03.900000000000,   0.09040,
,,,-03.890000000000,   0.09000,
,,,-03.880000000000,   0.08720,
,,,-03.870000000000,   0.08960,
,,,-03.860000000000,   0.09000,
,,,-03.850000000000,   0.09120,
,,,-03.840000000000,   0.08600,
,,,-03.830000000000,   0.08680,
,,,-03.820000000000,   0.08880,
,,,-03.810000000000,   0.09360,
,,,-03.800000000000,   0.08840,
,,,-03.790000000000,   0.08880,
,,,-03.780000000000,   0.09040,
,,,-03.770000000000,   0.09040,
,,,-03.760000000000,   0.08640,
,,,-03.750000000000,   0.08720,
,,,-03.740000000000,   0.09040,
,,,-03.730000000000,   0.08760,
,,,-03.720000000000,   0.08920,
,,,-03.710000000000,   0.08960,
,,,-03.700000000000,   0.09040,
,,,-03.690000000000,   0.09080,
,,,-03.680000000000,   0.09000,
,,,-03.670000000000,   0.08880,
,,,-03.660000000000,   0.08920,
,,,-03.650000000000,   0.08840,
,,,-03.640000000000,   0.09200,
,,,-03.630000000000,   0.09040,
,,,-03.620000000000,   0.08960,
,,,-03.610000000000,   0.08880,
,,,-03.600000000000,   0.09120,
,,,-03.590000000000,   0.09240,
,,,-03.580000000000,   0.08920,
,,,-03.570000000000,   0.08920,
,,,-03.560000000000,   0.08920,
,,,-03.550000000000,   0.08760,
,,,-03.540000000000,   0.08920,
,,,-03.530000000000,   0.09040,
,,,-03.520000000000,   0.09000,
,,,-03.510000000000,   0.08760,
,,,-03.500000000000,   0.09160,
,,,-03.490000000000,   0.08840,
,,,-03.480000000000,   0.09120,
,,,-03.470000000000,   0.09200,
,,,-03.460000000000,   0.08960,
,,,-03.450000000000,   0.09160,
,,,-03.440000000000,   0.08920,
,,,-03.430000000000,   0.08880,
,,,-03.420000000000,   0.08880,
,,,-03.410000000000,   0.09120,
,,,-03.400000000000,   0.08640,
,,,-03.390000000000,   0.08960,
,,,-03.380000000000,   0.08880,
,,,-03.370000000000,   0.08880,
,,,-03.360000000000,   0.08920,
,,,-03.350000000000,   0.08880,
,,,-03.340000000000,   0.08920,
,,,-03.330000000000,   0.09000,
,,,-03.320000000000,   0.08960,
,,,-03.310000000000,   0.08760,
,,,-03.300000000000,   0.08840,
,,,-03.290000000000,   0.09080,
,,,-03.280000000000,   0.08840,
,,,-03.270000000000,   0.09000,
,,,-03.260000000000,   0.09000,
,,,-03.250000000000,   0.09120,
,,,-03.240000000000,   0.09040,
,,,-03.230000000000,   0.08560,
,,,-03.220000000000,   0.09080,
,,,-03.210000000000,   0.09120,
,,,-03.200000000000,   0.09120,
,,,-03.190000000000,   0.08760,
,,,-03.180000000000,   0.08760,
,,,-03.170000000000,   0.08720,
,,,-03.160000000000,   0.09000,
,,,-03.150000000000,   0.08760,
,,,-03.140000000000,   0.08960,
,,,-03.130000000000,   0.08800,
,,,-03.120000000000,   0.08840,
,,,-03.110000000000,   0.08960,
,,,-03.100000000000,   0.08760,
,,,-03.090000000000,   0.08840,
,,,-03.080000000000,   0.09000,
,,,-03.070000000000,   0.08920,
,,,-03.060000000000,   0.09080,
,,,-03.050000000000,   0.09000,
,,,-03.040000000000,   0.08960,
,,,-03.030000000000,   0.09080,
,,,-03.020000000000,   0.09040,
,,,-03.010000000000,   0.08960,
,,,-03.000000000000,   0.08720,
,,,-02.990000000000,   0.08800,
,,,-02.980000000000,   0.08960,
,,,-02.970000000000,   0.09080,
,,,-02.960000000000,   0.08760,
,,,-02.950000000000,   0.08880,
,,,-02.940000000000,   0.09120,
,,,-02.930000000000,   0.08880,
,,,-02.920000000000,   0.09040,
,,,-02.910000000000,   0.08920,
,,,-02.900000000000,   0.09000,
,,,-02.890000000000,   0.08760,
,,,-02.880000000000,   0.08680,
,,,-02.870000000000,   0.08800,
,,,-02.860000000000,   0.08640,
,,,-02.850000000000,   0.09000,
,,,-02.840000000000,   0.09000,
,,,-02.830000000000,   0.09080,
,,,-02.820000000000,   0.08720,
,,,-02.810000000000,   0.08800,
,,,-02.800000000000,   0.08760,
,,,-02.790000000000,   0.08600,
,,,-02.780000000000,   0.09200,
,,,-02.770000000000,   0.08880,
,,,-02.760000000000,   0.09000,
,,,-02.750000000000,   0.09000,
,,,-02.740000000000,   0.09120,
,,,-02.730000000000,   0.09040,
,,,-02.720000000000,   0.08680,
,,,-02.710000000000,   0.08760,
,,,-02.700000000000,   0.09200,
,,,-02.690000000000,   0.08960,
,,,-02.680000000000,   0.09000,
,,,-02.670000000000,   0.08600,
,,,-02.660000000000,   0.09080,
,,,-02.650000000000,   0.09080,
,,,-02.640000000000,   0.08880,
,,,-02.630000000000,   0.08840,
,,,-02.620000000000,   0.08960,
,,,-02.610000000000,   0.09080,
,,,-02.600000000000,   0.09080,
,,,-02.590000000000,   0.09240,
,,,-02.580000000000,   0.09000,
,,,-02.570000000000,   0.08760,
,,,-02.560000000000,   0.08760,
,,,-02.550000000000,   0.08840,
,,,-02.540000000000,   0.08880,
,,,-02.530000000000,   0.09240,
,,,-02.520000000000,   0.08920,
,,,-02.510000000000,   0.09120,
,,,-02.500000000000,   0.08920,
,,,-02.490000000000,   0.08960,
,,,-02.480000000000,   0.09040,
,,,-02.470000000000,   0.09360,
,,,-02.460000000000,   0.08920,
,,,-02.450000000000,   0.08640,
,,,-02.440000000000,   0.09080,
,,,-02.430000000000,   0.08720,
,,,-02.420000000000,   0.08760,
,,,-02.410000000000,   0.09080,
,,,-02.400000000000,   0.08680,
,,,-02.390000000000,   0.08920,
,,,-02.380000000000,   0.09400,
,,,-02.370000000000,   0.09440,
,,,-02.360000000000,   0.09080,
,,,-02.350000000000,   0.09160,
,,,-02.340000000000,   0.09080,
,,,-02.330000000000,   0.08760,
,,,-02.320000000000,   0.08880,
,,,-02.310000000000,   0.08880,
,,,-02.300000000000,   0.09120,
,,,-02.290000000000,   0.08840,
,,,-02.280000000000,   0.09000,
,,,-02.270000000000,   0.08720,
,,,-02.260000000000,   0.08960,
,,,-02.250000000000,   0.08840,
,,,-02.240000000000,   0.08960,
,,,-02.230000000000,   0.08800,
,,,-02.220000000000,   0.09120,
,,,-02.210000000000,   0.08760,
,,,-02.200000000000,   0.09240,
,,,-02.190000000000,   0.08920,
,,,-02.180000000000,   0.08960,
,,,-02.170000000000,   0.08840,
,,,-02.160000000000,   0.09040,
,,,-02.150000000000,   0.08840,
,,,-02.140000000000,   0.08880,
,,,-02.130000000000,   0.08760,
,,,-02.120000000000,   0.08840,
,,,-02.110000000000,   0.08760,
,,,-02.100000000000,   0.08840,
,,,-02.090000000000,   0.08880,
,,,-02.080000000000,   0.09080,
,,,-02.070000000000,   0.08720,
,,,-02.060000000000,   0.08480,
,,,-02.050000000000,   0.08920,
,,,-02.040000000000,   0.09240,
,,,-02.030000000000,   0.08880,
,,,-02.020000000000,   0.09200,
,,,-02.010000000000,   0.09360,
,,,-02.000000000000,   0.08960,
,,,-01.990000000000,   0.08760,
,,,-01.980000000000,   0.08760,
,,,-01.970000000000,   0.08800,
,,,-01.960000000000,   0.08760,
,,,-01.950000000000,   0.08920,
,,,-01.940000000000,   0.09200,
,,,-01.930000000000,   0.08800,
,,,-01.920000000000,   0.09080,
,,,-01.910000000000,   0.09040,
,,,-01.900000000000,   0.09120,
,,,-01.890000000000,   0.09200,
,,,-01.880000000000,   0.08720,
,,,-01.870000000000,   0.08880,
,,,-01.860000000000,   0.09320,
,,,-01.850000000000,   0.09440,
,,,-01.840000000000,   0.09080,
,,,-01.830000000000,   0.08920,
,,,-01.820000000000,   0.08600,
,,,-01.810000000000,   0.08880,
,,,-01.800000000000,   0.09120,
,,,-01.790000000000,   0.09360,
,,,-01.780000000000,   0.09040,
,,,-01.770000000000,   0.08920,
,,,-01.760000000000,   0.09480,
,,,-01.750000000000,   0.09000,
,,,-01.740000000000,   0.09000,
,,,-01.730000000000,   0.08920,
,,,-01.720000000000,   0.09240,
,,,-01.710000000000,   0.09120,
,,,-01.700000000000,   0.08840,
,,,-01.690000000000,   0.08760,
,,,-01.680000000000,   0.08960,
,,,-01.670000000000,   0.08760,
,,,-01.660000000000,   0.08840,
,,,-01.650000000000,   0.08920,
,,,-01.640000000000,   0.08880,
,,,-01.630000000000,   0.08720,
,,,-01.620000000000,   0.08880,
,,,-01.610000000000,   0.09000,
,,,-01.600000000000,   0.08800,
,,,-01.590000000000,   0.09040,
,,,-01.580000000000,   0.08920,
,,,-01.570000000000,   0.08640,
,,,-01.560000000000,   0.09000,
,,,-01.550000000000,   0.08880,
,,,-01.540000000000,   0.09000,
,,,-01.530000000000,   0.09160,
,,,-01.520000000000,   0.09040,
,,,-01.510000000000,   0.09200,
,,,-01.500000000000,   0.09080,
,,,-01.490000000000,   0.09080,
,,,-01.480000000000,   0.08960,
,,,-01.470000000000,   0.09160,
,,,-01.460000000000,   0.08760,
,,,-01.450000000000,   0.09000,
,,,-01.440000000000,   0.08800,
,,,-01.430000000000,   0.09280,
,,,-01.420000000000,   0.08840,
,,,-01.410000000000,   0.09040,
,,,-01.400000000000,   0.09000,
,,,-01.390000000000,   0.08880,
,,,-01.380000000000,   0.09080,
,,,-01.370000000000,   0.09080,
,,,-01.360000000000,   0.08760,
,,,-01.350000000000,   0.08840,
,,,-01.340000000000,   0.08840,
,,,-01.330000000000,   0.08760,
,,,-01.320000000000,   0.08880,
,,,-01.310000000000,   0.08800,
,,,-01.300000000000,   0.09080,
,,,-01.290000000000,   0.08960,
,,,-01.280000000000,   0.09120,
,,,-01.270000000000,   0.08920,
,,,-01.260000000000,   0.09000,
,,,-01.250000000000,   0.08920,
,,,-01.240000000000,   0.09000,
,,,-01.230000000000,   0.09040,
,,,-01.220000000000,   0.08920,
,,,-01.210000000000,   0.08920,
,,,-01.200000000000,   0.09080,
,,,-01.190000000000,   0.09000,
,,,-01.180000000000,   0.08880,
,,,-01.170000000000,   0.09120,
,,,-01.160000000000,   0.08920,
,,,-01.150000000000,   0.09040,
,,,-01.140000000000,   0.09200,
,,,-01.130000000000,   0.08880,
,,,-01.120000000000,   0.09320,
,,,-01.110000000000,   0.08760,
,,,-01.100000000000,   0.09200,
,,,-01.090000000000,   0.09080,
,,,-01.080000000000,   0.08920,
,,,-01.070000000000,   0.09160,
,,,-01.060000000000,   0.08840,
,,,-01.050000000000,   0.08520,
,,,-01.040000000000,   0.09320,
,,,-01.030000000000,   0.08840,
,,,-01.020000000000,   0.08840,
,,,-01.010000000000,   0.08920,
,,,-01.000000000000,   0.08720,
,,,-00.990000000000,   0.08760,
,,,-00.980000000000,   0.08680,
,,,-00.970000000000,   0.08880,
,,,-00.960000000000,   0.08760,
,,,-00.950000000000,   0.09080,
,,,-00.940000000000,   0.09000,
,,,-00.930000000000,   0.08800,
,,,-00.920000000000,   0.08560,
,,,-00.910000000000,   0.09080,
,,,-00.900000000000,   0.08880,
,,,-00.890000000000,   0.09120,
,,,-00.880000000000,   0.09120,
,,,-00.870000000000,   0.08920,
,,,-00.860000000000,   0.08720,
,,,-00.850000000000,   0.09280,
,,,-00.840000000000,   0.09120,
,,,-00.830000000000,   0.08880,
