data/detuning_coil_curves/F0025CH1.CSV

Record Length,2.500000e+03,,  -6.960000000000,   0.10200,
Sample Interval,1.000000e-02,,  -6.950000000000,   0.10160,
Trigger Point,6.960000000000e+02,,  -6.940000000000,   0.10680,
,,,  -6.930000000000,   0.10360,
,,,  -6.920000000000,   0.10040,
,,,  -6.910000000000,   0.10400,
Source,CH1,,  -6.900000000000,   0.10320,
Vertical Units,V,,  -6.890000000000,   0.10480,
Vertical Scale,1.000000e-02,,  -6.880000000000,   0.10360,
Vertical Offset,-7.520000e-02,,  -6.870000000000,   0.10560,
Horizontal Units,s,,  -6.860000000000,   0.10720,
Horizontal Scale,2.500000e+00,,  -6.850000000000,   0.10360,
Pt Fmt,Y,,  -6.840000000000,   0.10320,
Yzero,0.000000e+00,,  -6.830000000000,   0.10480,
Probe Atten,1.000000e+00,,  -6.820000000000,   0.10360,
Model Number,TDS2001C,,  -6.810000000000,   0.10520,
Serial Number,C012118,,  -6.800000000000,   0.10200,
Firmware Version,FV:v24.15,,  -6.790000000000,   0.10560,
,,,-06.780000000000,   0.10440,
,,,-06.770000000000,   0.10240,
,,,-06.760000000000,   0.10320,
,,,-06.750000000000,   0.10560,
,,,-06.740000000000,   0.10600,
,,,-06.730000000000,   0.10200,
,,,-06.720000000000,   0.10360,
,,,-06.710000000000,   0.10240,
,,,-06.700000000000,   0.10320,
,,,-06.690000000000,   0.10280,
,,,-06.680000000000,   0.10400,
,,,-06.670000000000,   0.10360,
,,,-06.660000000000,   0.10160,
,,,-06.650000000000,   0.10480,
,,,-06.640000000000,   0.10520,
,,,-06.630000000000,   0.10280,
,,,-06.620000000000,   0.10280,
,,,-06.610000000000,   0.10000,
,,,-06.600000000000,   0.10320,
,,,-06.590000000000,   0.10320,
,,,-06.580000000000,   0.10360,
,,,-06.570000000000,   0.10960,
,,,-06.560000000000,   0.10080,
,,,-06.550000000000,   0.10440,
,,,-06.540000000000,   0.10320,
,,,-06.530000000000,   0.10640,
,,,-06.520000000000,   0.10360,
,,,-06.510000000000,   0.10240,
,,,-06.500000000000,   0.10560,
,,,-06.490000000000,   0.10400,
,,,-06.480000000000,   0.10440,
,,,-06.470000000000,   0.10240,
,,,-06.460000000000,   0.10520,
,,,-06.450000000000,   0.10240,
,,,-06.440000000000,   0.10600,
,,,-06.430000000000,   0.10400,
,,,-06.420000000000,   0.10040,
,,,-06.410000000000,   0.10480,
,,,-06.400000000000,   0.10320,
,,,-06.390000000000,   0.10480,
,,,-06.380000000000,   0.10280,
,,,-06.370000000000,   0.10240,
,,,-06.360000000000,   0.10280,
,,,-06.350000000000,   0.10120,
,,,-06.340000000000,   0.10360,
,,,-06.330000000000,   0.10320,
,,,-06.320000000000,   0.10440,
,,,-06.310000000000,   0.10360,
,,,-06.300000000000,   0.10320,
,,,-06.290000000000,   0.10240,
,,,-06.280000000000,   0.10560,
,,,-06.270000000000,   0.10360,
,,,-06.260000000000,   0.10280,
,,,-06.250000000000,   0.10240,
,,,-06.240000000000,   0.10720,
,,,-06.230000000000,   0.10320,
,,,-06.220000000000,   0.10320,
,,,-06.210000000000,   0.10400,
,,,-06.200000000000,   0.10280,
,,,-06.190000000000,   0.10520,
,,,-06.180000000000,   0.10600,
,,,-06.170000000000,   0.10320,
,,,-06.160000000000,   0.10440,
,,,-06.150000000000,   0.10280,
,,,-06.140000000000,   0.10400,
,,,-06.130000000000,   0.10320,
,,,-06.120000000000,   0.10440,
,,,-06.110000000000,   0.10320,
,,,-06.100000000000,   0.10480,
,,,-06.090000000000,   0.10200,
,,,-06.080000000000,   0.10480,
,,,-06.070000000000,   0.10520,
,,,-06.060000000000,   0.10440,
,,,-06.050000000000,   0.10560,
,,,-06.040000000000,   0.10320,
,,,-06.030000000000,   0.10960,
,,,-06.020000000000,   0.10320,
,,,-06.010000000000,   0.10400,
,,,-06.000000000000,   0.10680,
,,,-05.990000000000,   0.10440,
,,,-05.980000000000,   0.10320,
,,,-05.970000000000,   0.10360,
,,,-05.960000000000,   0.10360,
,,,-05.950000000000,   0.10520,
,,,-05.940000000000,   0.10680,
,,,-05.930000000000,   0.10200,
,,,-05.920000000000,   0.10400,
,,,-05.910000000000,   0.10760,
,,,-05.900000000000,   0.10400,
,,,-05.890000000000,   0.10280,
,,,-05.880000000000,   0.10280,
,,,-05.870000000000,   0.10280,
,,,-05.860000000000,   0.10480,
,,,-05.850000000000,   0.10440,
,,,-05.840000000000,   0.10240,
,,,-05.830000000000,   0.10120,
,,,-05.820000000000,   0.10640,
,,,-05.810000000000,   0.10320,
,,,-05.800000000000,   0.10320,
,,,-05.790000000000,   0.10520,
,,,-05.780000000000,   0.10320,
,,,-05.770000000000,   0.10280,
,,,-05.760000000000,   0.10680,
,,,-05.750000000000,   0.10320,
,,,-05.740000000000,   0.10440,
,,,-05.730000000000,   0.10280,
,,,-05.720000000000,   0.10480,
,,,-05.710000000000,   0.10200,
,,,-05.700000000000,   0.10400,
,,,-05.690000000000,   0.10320,
,,,-05.680000000000,   0.10320,
,,,-05.670000000000,   0.10280,
,,,-05.660000000000,   0.10600,
,,,-05.650000000000,   0.10640,
,,,-05.640000000000,   0.10520,
,,,-05.630000000000,   0.10440,
,,,-05.620000000000,   0.10320,
,,,-05.610000000000,   0.10360,
,,,-05.600000000000,   0.10320,
,,,-05.590000000000,   0.10640,
,,,-05.580000000000,   0.10240,
,,,-05.570000000000,   0.10440,
,,,-05.560000000000,   0.10520,
,,,-05.550000000000,   0.10680,
,,,-05.540000000000,   0.10440,
,,,-05.530000000000,   0.10360,
,,,-05.520000000000,   0.10280,
,,,-05.510000000000,   0.10320,
,,,-05.500000000000,   0.10400,
,,,-05.490000000000,   0.10280,
,,,-05.480000000000,   0.10400,
,,,-05.470000000000,   0.10320,
,,,-05.460000000000,   0.10320,
,,,-05.450000000000,   0.10240,
,,,-05.440000000000,   0.10640,
,,,-05.430000000000,   0.10160,
,,,-05.420000000000,   0.10320,
,,,-05.410000000000,   0.10560,
,,,-05.400000000000,   0.10640,
,,,-05.390000000000,   0.10440,
,,,-05.380000000000,   0.10440,
,,,-05.370000000000,   0.10440,
,,,-05.360000000000,   0.10400,
,,,-05.350000000000,   0.10800,
,,,-05.340000000000,   0.10440,
,,,-05.330000000000,   0.10480,
,,,-05.320000000000,   0.10560,
,,,-05.310000000000,   0.10480,
,,,-05.300000000000,   0.10520,
,,,-05.290000000000,   0.10200,
,,,-05.280000000000,   0.10120,
,,,-05.270000000000,   0.10560,
,,,-05.260000000000,   0.10360,
,,,-05.250000000000,   0.10640,
,,,-05.240000000000,   0.10600,
,,,-05.230000000000,   0.10320,
,,,-05.220000000000,   0.10360,
,,,-05.210000000000,   0.10120,
,,,-05.200000000000,   0.10280,
,,,-05.190000000000,   0.10320,
,,,-05.180000000000,   0.10040,
,,,-05.170000000000,   0.10280,
,,,-05.160000000000,   0.10640,
,,,-05.150000000000,   0.10320,
,,,-05.140000000000,   0.10360,
,,,-05.130000000000,   0.10200,
,,,-05.120000000000,   0.10400,
,,,-05.110000000000,   0.10400,
,,,-05.100000000000,   0.10400,
,,,-05.090000000000,   0.10320,
,,,-05.080000000000,   0.10240,
,,,-05.070000000000,   0.10160,
,,,-05.060000000000,   0.09920,
,,,-05.050000000000,   0.10320,
,,,-05.040000000000,   0.10480,
,,,-05.030000000000,   0.10640,
,,,-05.020000000000,   0.10360,
,,,-05.010000000000,   0.10320,
,,,-05.000000000000,   0.10280,
,,,-04.990000000000,   0.10360,
,,,-04.980000000000,   0.10520,
,,,-04.970000000000,   0.10200,
,,,-04.960000000000,   0.10280,
,,,-04.950000000000,   0.10160,
,,,-04.940000000000,   0.10520,
,,,-04.930000000000,   0.10240,
,,,-04.920000000000,   0.10200,
,,,-04.910000000000,   0.10280,
,,,-04.900000000000,   0.10440,
,,,-04.890000000000,   0.10480,
,,,-04.880000000000,   0.10080,
,,,-04.870000000000,   0.10440,
,,,-04.860000000000,   0.10240,
,,,-04.850000000000,   0.10360,
,,,-04.840000000000,   0.10280,
,,,-04.830000000000,   0.10240,
,,,-04.820000000000,   0.10120,
,,,-04.810000000000,   0.10520,
,,,-04.800000000000,   0.10520,
,,,-04.790000000000,   0.10320,
,,,-04.780000000000,   0.10760,
,,,-04.770000000000,   0.10480,
,,,-04.760000000000,   0.10640,
,,,-04.750000000000,   0.10400,
,,,-04.740000000000,   0.10600,
,,,-04.730000000000,   0.10680,
,,,-04.720000000000,   0.10320,
,,,-04.710000000000,   0.10440,
,,,-04.700000000000,   0.10480,
,,,-04.690000000000,   0.10880,
,,,-04.680000000000,   0.10560,
,,,-04.670000000000,   0.10280,
,,,-04.660000000000,   0.10360,
,,,-04.650000000000,   0.10480,
,,,-04.640000000000,   0.10440,
,,,-04.630000000000,   0.10640,
,,,-04.620000000000,   0.10160,
,,,-04.610000000000,   0.10000,
,,,-04.600000000000,   0.10400,
,,,-04.590000000000,   0.10240,
,,,-04.580000000000,   0.10280,
,,,-04.570000000000,   0.10120,
,,,-04.560000000000,   0.10600,
,,,-04.550000000000,   0.10160,
,,,-04.540000000000,   0.10520,
,,,-04.530000000000,   0.10160,
,,,-04.520000000000,   0.10360,
,,,-04.510000000000,   0.10440,
,,,-04.500000000000,   0.10520,
,,,-04.490000000000,   0.10520,
,,,-04.480000000000,   0.10200,
,,,-04.470000000000,   0.10800,
,,,-04.460000000000,   0.10360,
,,,-04.450000000000,   0.10440,
,,,-04.440000000000,   0.10400,
,,,-04.430000000000,   0.10440,
,,,-04.420000000000,   0.10240,
,,,-04.410000000000,   0.10160,
,,,-04.400000000000,   0.10520,
,,,-04.390000000000,   0.10320,
,,,-04.380000000000,   0.10600,
,,,-04.370000000000,   0.10560,
,,,-04.360000000000,   0.10520,
,,,-04.350000000000,   0.10200,
,,,-04.340000000000,   0.10600,
,,,-04.330000000000,   0.10440,
,,,-04.320000000000,   0.10560,
,,,-04.310000000000,   0.10560,
,,,-04.300000000000,   0.10520,
,,,-04.290000000000,   0.10560,
,,,-04.280000000000,   0.10200,
,,,-04.270000000000,   0.10560,
,,,-04.260000000000,   0.10240,
,,,-04.250000000000,   0.10280,
,,,-04.240000000000,   0.09880,
,,,-04.230000000000,   0.10480,
,,,-04.220000000000,   0.10400,
,,,-04.210000000000,   0.10240,
,,,-04.200000000000,   0.10440,
,,,-04.190000000000,   0.09960,
,,,-04.180000000000,   0.10840,
,,,-04.170000000000,   0.10440,
,,,-04.160000000000,   0.10560,
,,,-04.150000000000,   0.10480,
,,,-04.140000000000,   0.10760,
,,,-04.130000000000,   0.10600,
,,,-04.120000000000,   0.10720,
,,,-04.110000000000,   0.10960,
,,,-04.100000000000,   0.10360,
,,,-04.090000000000,   0.10520,
,,,-04.080000000000,   0.10160,
,,,-04.070000000000,   0.10440,
,,,-04.060000000000,   0.10360,
,,,-04.050000000000,   0.10240,
,,,-04.040000000000,   0.10480,
,,,-04.030000000000,   0.10400,
,,,-04.020000000000,   0.10440,
,,,-04.010000000000,   0.10560,
,,,-04.000000000000,   0.10560,
,,,-03.990000000000,   0.10360,
,,,-03.980000000000,   0.10480,
,,,-03.970000000000,   0.10840,
,,,-03.960000000000,   0.11040,
,,,-03.950000000000,   0.10640,
,,,-03.940000000000,   0.10520,
,,,-03.930000000000,   0.10160,
,,,-03.920000000000,   0.10240,
,,,-03.910000000000,   0.10520,
,,,-03.900000000000,   0.10440,
,,,-03.890000000000,   0.10440,
,,,-03.880000000000,   0.10320,
,,,-03.870000000000,   0.10560,
,,,-03.860000000000,   0.10560,
,,,-03.850000000000,   0.10680,
,,,-03.840000000000,   0.10520,
,,,-03.830000000000,   0.10480,
,,,-03.820000000000,   0.10040,
,,,-03.810000000000,   0.10400,
,,,-03.800000000000,   0.10560,
,,,-03.790000000000,   0.10320,
,,,-03.780000000000,   0.10320,
,,,-03.770000000000,   0.10480,
,,,-03.760000000000,   0.10680,
,,,-03.750000000000,   0.10680,
,,,-03.740000000000,   0.10360,
,,,-03.730000000000,   0.10440,
,,,-03.720000000000,   0.10240,
,,,-03.710000000000,   0.10600,
,,,-03.700000000000,   0.10400,
,,,-03.690000000000,   0.10000,
,,,-03.680000000000,   0.10480,
,,,-03.670000000000,   0.10360,
,,,-03.660000000000,   0.10320,
,,,-03.650000000000,   0.10320,
,,,-03.640000000000,   0.10520,
,,,-03.630000000000,   0.10600,
,,,-03.620000000000,   0.10600,
,,,-03.610000000000,   0.10600,
,,,-03.600000000000,   0.10240,
,,,-03.590000000000,   0.10400,
,,,-03.580000000000,   0.10680,
,,,-03.570000000000,   0.10440,
,,,-03.560000000000,   0.10480,
,,,-03.550000000000,   0.10560,
,,,-03.540000000000,   0.10440,
,,,-03.530000000000,   0.10800,
,,,-03.520000000000,   0.10400,
,,,-03.510000000000,   0.10360,
,,,-03.500000000000,   0.10600,
,,,-03.490000000000,   0.10520,
,,,-03.480000000000,   0.10640,
,,,-03.470000000000,   0.10360,
,,,-03.460000000000,   0.10480,
,,,-03.450000000000,   0.10320,
,,,-03.440000000000,   0.10520,
,,,-03.430000000000,   0.10560,
,,,-03.420000000000,   0.10240,
,,,-03.410000000000,   0.10280,
,,,-03.400000000000,   0.10000,
,,,-03.390000000000,   0.10160,
,,,-03.380000000000,   0.10520,
,,,-03.370000000000,   0.09840,
,,,-03.360000000000,   0.10400,
,,,-03.350000000000,   0.10320,
,,,-03.340000000000,   0.10960,
,,,-03.330000000000,   0.10320,
,,,-03.320000000000,   0.10240,
,,,-03.310000000000,   0.10360,
,,,-03.300000000000,   0.10680,
,,,-03.290000000000,   0.10680,
,,,-03.280000000000,   0.10280,
,,,-03.270000000000,   0.10280,
,,,-03.260000000000,   0.10680,
,,,-03.250000000000,   0.10520,
,,,-03.240000000000,   0.10320,
,,,-03.230000000000,   0.10560,
,,,-03.220000000000,   0.10520,
,,,-03.210000000000,   0.10600,
,,,-03.200000000000,   0.10440,
,,,-03.190000000000,   0.10280,
,,,-03.180000000000,   0.10120,
,,,-03.170000000000,   0.10680,
,,,-03.160000000000,   0.10320,
,,,-03.150000000000,   0.10480,
,,,-03.140000000000,   0.10640,
,,,-03.130000000000,   0.10280,
,,,-03.120000000000,   0.10520,
,,,-03.110000000000,   0.10320,
,,,-03.100000000000,   0.10400,
,,,-03.090000000000,   0.10440,
,,,-03.080000000000,   0.10720,
,,,-03.070000000000,   0.10360,
,,,-03.060000000000,   0.10280,
,,,-03.050000000000,   0.10160,
,,,-03.040000000000,   0.10600,
,,,-03.030000000000,   0.10360,
,,,-03.020000000000,   0.10320,
,,,-03.010000000000,   0.10320,
,,,-03.000000000000,   0.10320,
,,,-02.990000000000,   0.10320,
,,,-02.980000000000,   0.10520,
,,,-02.970000000000,   0.10320,
,,,-02.960000000000,   0.10720,
,,,-02.950000000000,   0.10240,
,,,-02.940000000000,   0.10320,
,,,-02.930000000000,   0.10320,
,,,-02.920000000000,   0.10320,
,,,-02.910000000000,   0.10240,
,,,-02.900000000000,   0.10600,
,,,-02.890000000000,   0.10680,
,,,-02.880000000000,   0.10600,
,,,-02.870000000000,   0.10440,
,,,-02.860000000000,   0.10280,
,,,-02.850000000000,   0.10560,
,,,-02.840000000000,   0.10440,
,,,-02.830000000000,   0.10840,
,,,-02.820000000000,   0.10800,
,,,-02.810000000000,   0.10760,
,,,-02.800000000000,   0.10320,
,,,-02.790000000000,   0.10440,
,,,-02.780000000000,   0.10240,
,,,-02.770000000000,   0.10280,
,,,-02.760000000000,   0.10240,
,,,-02.750000000000,   0.10240,
,,,-02.740000000000,   0.10480,
,,,-02.730000000000,   0.10240,
,,,-02.720000000000,   0.10280,
,,,-02.710000000000,   0.10560,
,,,-02.700000000000,   0.10640,
,,,-02.690000000000,   0.10080,
,,,-02.680000000000,   0.10320,
,,,-02.670000000000,   0.10520,
,,,-02.660000000000,   0.10560,
,,,-02.650000000000,   0.10320,
,,,-02.640000000000,   0.10640,
,,,-02.630000000000,   0.10560,
,,,-02.620000000000,   0.10680,
,,,-02.610000000000,   0.10400,
,,,-02.600000000000,   0.10600,
,,,-02.590000000000,   0.10280,
,,,-02.580000000000,   0.10320,
,,,-02.570000000000,   0.10280,
,,,-02.560000000000,   0.10560,
,,,-02.550000000000,   0.10320,
,,,-02.540000000000,   0.10440,
,,,-02.530000000000,   0.10640,
,,,-02.520000000000,   0.10760,
,,,-02.510000000000,   0.10440,
,,,-02.500000000000,   0.10520,
,,,-02.490000000000,   0.10160,
,,,-02.480000000000,   0.10520,
,,,-02.470000000000,   0.10440,
,,,-02.460000000000,   0.10320,
,,,-02.450000000000,   0.10520,
,,,-02.440000000000,   0.10680,
,,,-02.430000000000,   0.10520,
,,,-02.420000000000,   0.10560,
,,,-02.410000000000,   0.10320,
,,,-02.400000000000,   0.10560,
,,,-02.390000000000,   0.10560,
,,,-02.380000000000,   0.10640,
,,,-02.370000000000,   0.10000,
,,,-02.360000000000,   0.10120,
,,,-02.350000000000,   0.10440,
,,,-02.340000000000,   0.10320,
,,,-02.330000000000,   0.10320,
,,,-02.320000000000,   0.10480,
,,,-02.310000000000,   0.10440,
,,,-02.300000000000,   0.10560,
,,,-02.290000000000,   0.10560,
,,,-02.280000000000,   0.10360,
,,,-02.270000000000,   0.10440,
,,,-02.260000000000,   0.10320,
,,,-02.250000000000,   0.10360,
,,,-02.240000000000,   0.10640,
,,,-02.230000000000,   0.10240,
,,,-02.220000000000,   0.10560,
,,,-02.210000000000,   0.10760,
,,,-02.200000000000,   0.10560,
,,,-02.190000000000,   0.10240,
,,,-02.180000000000,   0.10480,
,,,-02.170000000000,   0.10400,
,,,-02.160000000000,   0.10720,
,,,-02.150000000000,   0.10360,
,,,-02.140000000000,   0.10840,
,,,-02.130000000000,   0.10560,
,,,-02.120000000000,   0.10600,
,,,-02.110000000000,   0.10680,
,,,-02.100000000000,   0.10480,
,,,-02.090000000000,   0.10560,
,,,-02.080000000000,   0.10360,
,,,-02.070000000000,   0.10400,
,,,-02.060000000000,   0.10680,
,,,-02.050000000000,   0.10240,
,,,-02.040000000000,   0.10440,
,,,-02.030000000000,   0.10720,
,,,-02.020000000000,   0.10400,
,,,-02.010000000000,   0.10600,
,,,-02.000000000000,   0.10560,
,,,-01.990000000000,   0.10520,
,,,-01.980000000000,   0.10680,
,,,-01.970000000000,   0.10160,
,,,-01.960000000000,   0.10320,
,,,-01.950000000000,   0.10560,
,,,-01.940000000000,   0.10160,
,,,-01.930000000000,   0.10560,
,,,-01.920000000000,   0.10200,
,,,-01.910000000000,   0.10320,
,,,-01.900000000000,   0.10560,
,,,-01.890000000000,   0.10440,
,,,-01.880000000000,   0.10480,
,,,-01.870000000000,   0.10480,
,,,-01.860000000000,   0.10160,
,,,-01.850000000000,   0.10320,
,,,-01.840000000000,   0.10440,
,,,-01.830000000000,   0.10400,
,,,-01.820000000000,   0.10360,
,,,-01.810000000000,   0.10680,
,,,-01.800000000000,   0.09960,
,,,-01.790000000000,   0.10640,
,,,-01.780000000000,   0.10520,
,,,-01.770000000000,   0.10360,
,,,-01.760000000000,   0.10440,
,,,-01.750000000000,   0.10760,
,,,-01.740000000000,   0.10320,
,,,-01.730000000000,   0.10560,
,,,-01.720000000000,   0.10360,
,,,-01.710000000000,   0.10240,
,,,-01.700000000000,   0.10360,
,,,-01.690000000000,   0.10760,
,,,-01.680000000000,   0.10320,
,,,-01.670000000000,   0.10760,
,,,-01.660000000000,   0.10480,
,,,-01.650000000000,   0.10560,
,,,-01.640000000000,   0.10320,
,,,-01.630000000000,   0.10560,
,,,-01.620000000000,   0.10520,
,,,-01.610000000000,   0.10480,
,,,-01.600000000000,   0.10720,
,,,-01.590000000000,   0.10680,
,,,-01.580000000000,   0.10560,
,,,-01.570000000000,   0.10360,
,,,-01.560000000000,   0.10400,
,,,-01.550000000000,   0.10160,
,,,-01.540000000000,   0.10360,
,,,-01.530000000000,   0.10840,
,,,-01.520000000000,   0.10600,
,,,-01.510000000000,   0.10520,
,,,-01.500000000000,   0.10560,
,,,-01.490000000000,   0.10400,
,,,-01.480000000000,   0.10720,
,,,-01.470000000000,   0.10680,
,,,-01.460000000000,   0.10280,
,,,-01.450000000000,   0.10600,
,,,-01.440000000000,   0.10560,
,,,-01.430000000000,   0.10400,
,,,-01.420000000000,   0.10360,
,,,-01.410000000000,   0.10560,
,,,-01.400000000000,   0.10640,
,,,-01.390000000000,   0.10680,
,,,-01.380000000000,   0.10280,
,,,-01.370000000000,   0.10400,
,,,-01.360000000000,   0.10400,
,,,-01.350000000000,   0.10160,
,,,-01.340000000000,   0.10560,
,,,-01.330000000000,   0.10520,
,,,-01.320000000000,   0.10640,
,,,-01.310000000000,   0.10560,
,,,-01.300000000000,   0.10400,
,,,-01.290000000000,   0.10200,
,,,-01.280000000000,   0.10080,
,,,-01.270000000000,   0.10520,
,,,-01.260000000000,   0.10160,
,,,-01.250000000000,   0.10560,
,,,-01.240000000000,   0.10720,
,,,-01.230000000000,   0.10440,
,,,-01.220000000000,   0.10360,
,,,-01.210000000000,   0.10480,
,,,-01.200000000000,   0.10560,
,,,-01.190000000000,   0.10440,
,,,-01.180000000000,   0.10320,
,,,-01.170000000000,   0.10320,
,,,-01.160000000000,   0.10520,
,,,-01.150000000000,   0.10640,
,,,-01.140000000000,   0.10520,
,,,-01.130000000000,   0.10320,
,,,-01.120000000000,   0.10160,
,,,-01.110000000000,   0.10680,
,,,-01.100000000000,   0.10360,
,,,-01.090000000000,   0.10280,
,,,-01.080000000000,   0.10400,
,,,-01.070000000000,   0.10440,
,,,-01.060000000000,   0.10400,
,,,-01.050000000000,   0.10440,
,,,-01.040000000000,   0.10440,
,,,-01.030000000000,   0.10240,
,,,-01.020000000000,   0.10440,
,,,-01.010000000000,   0.10440,
,,,-01.000000000000,   0.10600,
,,,-00.990000000000,   0.10320,
,,,-00.980000000000,   0.10400,
,,,-00.970000000000,   0.10400,
,,,-00.960000000000,   0.10280,
,,,-00.950000000000,   0.10320,
,,,-00.940000000000,   0.10480,
,,,-00.930000000000,   0.10480,
,,,-00.920000000000,   0.10480,
,,,-00.910000000000,   0.10480,
,,,-00.900000000000,   0.10640,
,,,-00.890000000000,   0.10360,
,,,-00.880000000000,   0.10320,
,,,-00.870000000000,   0.10280,
,,,-00.860000000000,   0.10120,
,,,-00.850000000000,   0.10240,
,,,-00.840000000000,   0.10720,
,,,-00.830000000000,   0.10520,
