data/detuning_coil_curves/F0028CH1.CSV

Record Length,2.500000e+03,,  -6.960000000000,   0.08200,
Sample Interval,1.000000e-02,,  -6.950000000000,   0.08520,
Trigger Point,6.960000000000e+02,,  -6.940000000000,   0.08480,
,,,  -6.930000000000,   0.08360,
,,,  -6.920000000000,   0.08400,
,,,  -6.910000000000,   0.08760,
Source,CH1,,  -6.900000000000,   0.08560,
Vertical Units,V,,  -6.890000000000,   0.08560,
Vertical Scale,1.000000e-02,,  -6.880000000000,   0.08400,
Vertical Offset,-7.520000e-02,,  -6.870000000000,   0.08040,
Horizontal Units,s,,  -6.860000000000,   0.08720,
Horizontal Scale,2.500000e+00,,  -6.850000000000,   0.08520,
Pt Fmt,Y,,  -6.840000000000,   0.08560,
Yzero,0.000000e+00,,  -6.830000000000,   0.08400,
Probe Atten,1.000000e+00,,  -6.820000000000,   0.08560,
Model Number,TDS2001C,,  -6.810000000000,   0.08600,
Serial Number,C012118,,  -6.800000000000,   0.08400,
Firmware Version,FV:v24.15,,  -6.790000000000,   0.08400,
,,,-06.780000000000,   0.08480,
,,,-06.770000000000,   0.08560,
,,,-06.760000000000,   0.08400,
,,,-06.750000000000,   0.08760,
,,,-06.740000000000,   0.08480,
,,,-06.730000000000,   0.08560,
,,,-06.720000000000,   0.08400,
,,,-06.710000000000,   0.08400,
,,,-06.700000000000,   0.08480,
,,,-06.690000000000,   0.08400,
,,,-06.680000000000,   0.08520,
,,,-06.670000000000,   0.08520,
,,,-06.660000000000,   0.08360,
,,,-06.650000000000,   0.08320,
,,,-06.640000000000,   0.08680,
,,,-06.630000000000,   0.08560,
,,,-06.620000000000,   0.08160,
,,,-06.610000000000,   0.08560,
,,,-06.600000000000,   0.08640,
,,,-06.590000000000,   0.08560,
,,,-06.580000000000,   0.08240,
,,,-06.570000000000,   0.08640,
,,,-06.560000000000,   0.08560,
,,,-06.550000000000,   0.08560,
,,,-06.540000000000,   0.08640,
,,,-06.530000000000,   0.08600,
,,,-06.520000000000,   0.08480,
,,,-06.510000000000,   0.08480,
,,,-06.500000000000,   0.08600,
,,,-06.490000000000,   0.08240,
,,,-06.480000000000,   0.08440,
,,,-06.470000000000,   0.08520,
,,,-06.460000000000,   0.08320,
,,,-06.450000000000,   0.08640,
,,,-06.440000000000,   0.08640,
,,,-06.430000000000,   0.08480,
,,,-06.420000000000,   0.08600,
,,,-06.410000000000,   0.08640,
,,,-06.400000000000,   0.08240,
,,,-06.390000000000,   0.08360,
,,,-06.380000000000,   0.08600,
,,,-06.370000000000,   0.08520,
,,,-06.360000000000,   0.08560,
,,,-06.350000000000,   0.08520,
,,,-06.340000000000,   0.08880,
,,,-06.330000000000,   0.08680,
,,,-06.320000000000,   0.08480,
,,,-06.310000000000,   0.08720,
,,,-06.300000000000,   0.08920,
,,,-06.290000000000,   0.08600,
,,,-06.280000000000,   0.08440,
,,,-06.270000000000,   0.08640,
,,,-06.260000000000,   0.08600,
,,,-06.250000000000,   0.08520,
,,,-06.240000000000,   0.08720,
,,,-06.230000000000,   0.08440,
,,,-06.220000000000,   0.08640,
,,,-06.210000000000,   0.08560,
,,,-06.200000000000,   0.08760,
,,,-06.190000000000,   0.08480,
,,,-06.180000000000,   0.08360,
,,,-06.170000000000,   0.08520,
,,,-06.160000000000,   0.08920,
,,,-06.150000000000,   0.08760,
,,,-06.140000000000,   0.08680,
,,,-06.130000000000,   0.08680,
,,,-06.120000000000,   0.08360,
,,,-06.110000000000,   0.08560,
,,,-06.100000000000,   0.08680,
,,,-06.090000000000,   0.08640,
,,,-06.080000000000,   0.08600,
,,,-06.070000000000,   0.08720,
,,,-06.060000000000,   0.08360,
,,,-06.050000000000,   0.08760,
,,,-06.040000000000,   0.08760,
,,,-06.030000000000,   0.08600,
,,,-06.020000000000,   0.08560,
,,,-06.010000000000,   0.08720,
,,,-06.000000000000,   0.08680,
,,,-05.990000000000,   0.08680,
,,,-05.980000000000,   0.08680,
,,,-05.970000000000,   0.08640,
,,,-05.960000000000,   0.08720,
,,,-05.950000000000,   0.08640,
,,,-05.940000000000,   0.08720,
,,,-05.930000000000,   0.08640,
,,,-05.920000000000,   0.08400,
,,,-05.910000000000,   0.08880,
,,,-05.900000000000,   0.08600,
,,,-05.890000000000,   0.08600,
,,,-05.880000000000,   0.08640,
,,,-05.870000000000,   0.08480,
,,,-05.860000000000,   0.08680,
,,,-05.850000000000,   0.08400,
,,,-05.840000000000,   0.08680,
,,,-05.830000000000,   0.08400,
,,,-05.820000000000,   0.08280,
,,,-05.810000000000,   0.08640,
,,,-05.800000000000,   0.08440,
,,,-05.790000000000,   0.08560,
,,,-05.780000000000,   0.08480,
,,,-05.770000000000,   0.08640,
,,,-05.760000000000,   0.08760,
,,,-05.750000000000,   0.08280,
,,,-05.740000000000,   0.08960,
,,,-05.730000000000,   0.08320,
,,,-05.720000000000,   0.08320,
,,,-05.710000000000,   0.08680,
,,,-05.700000000000,   0.08400,
,,,-05.690000000000,   0.08280,
,,,-05.680000000000,   0.08520,
,,,-05.670000000000,   0.08360,
,,,-05.660000000000,   0.08320,
,,,-05.650000000000,   0.08520,
,,,-05.640000000000,   0.08440,
,,,-05.630000000000,   0.08520,
,,,-05.620000000000,   0.08240,
,,,-05.610000000000,   0.08360,
,,,-05.600000000000,   0.08360,
,,,-05.590000000000,   0.08600,
,,,-05.580000000000,   0.08920,
,,,-05.570000000000,   0.08720,
,,,-05.560000000000,   0.08360,
,,,-05.550000000000,   0.08160,
,,,-05.540000000000,   0.08760,
,,,-05.530000000000,   0.08440,
,,,-05.520000000000,   0.08720,
,,,-05.510000000000,   0.08400,
,,,-05.500000000000,   0.08200,
,,,-05.490000000000,   0.08640,
,,,-05.480000000000,   0.08600,
,,,-05.470000000000,   0.08640,
,,,-05.460000000000,   0.08320,
,,,-05.450000000000,   0.08400,
,,,-05.440000000000,   0.08360,
,,,-05.430000000000,   0.08680,
,,,-05.420000000000,   0.08560,
,,,-05.410000000000,   0.08800,
,,,-05.400000000000,   0.08360,
,,,-05.390000000000,   0.08320,
,,,-05.380000000000,   0.08560,
,,,-05.370000000000,   0.08800,
,,,-05.360000000000,   0.08640,
,,,-05.350000000000,   0.08440,
,,,-05.340000000000,   0.08640,
,,,-05.330000000000,   0.08640,
,,,-05.320000000000,   0.08240,
,,,-05.310000000000,   0.08600,
,,,-05.300000000000,   0.08760,
,,,-05.290000000000,   0.08680,
,,,-05.280000000000,   0.08440,
,,,-05.270000000000,   0.08400,
,,,-05.260000000000,   0.08520,
,,,-05.250000000000,   0.08600,
,,,-05.240000000000,   0.08280,
,,,-05.230000000000,   0.08080,
,,,-05.220000000000,   0.08640,
,,,-05.210000000000,   0.08560,
,,,-05.200000000000,   0.08520,
,,,-05.190000000000,   0.08520,
,,,-05.180000000000,   0.08440,
,,,-05.170000000000,   0.08800,
,,,-05.160000000000,   0.08600,
,,,-05.150000000000,   0.08560,
,,,-05.140000000000,   0.08720,
,,,-05.130000000000,   0.08600,
,,,-05.120000000000,   0.08600,
,,,-05.110000000000,   0.08680,
,,,-05.100000000000,   0.08360,
,,,-05.090000000000,   0.08320,
,,,-05.080000000000,   0.08680,
,,,-05.070000000000,   0.08560,
,,,-05.060000000000,   0.08240,
,,,-05.050000000000,   0.08600,
,,,-05.040000000000,   0.08640,
,,,-05.030000000000,   0.08560,
,,,-05.020000000000,   0.08320,
,,,-05.010000000000,   0.08360,
,,,-05.000000000000,   0.08560,
,,,-04.990000000000,   0.08720,
,,,-04.980000000000,   0.08400,
,,,-04.970000000000,   0.08440,
,,,-04.960000000000,   0.08560,
,,,-04.950000000000,   0.08320,
,,,-04.940000000000,   0.08520,
,,,-04.930000000000,   0.08520,
,,,-04.920000000000,   0.08560,
,,,-04.910000000000,   0.08760,
,,,-04.900000000000,   0.08680,
,,,-04.890000000000,   0.08560,
,,,-04.880000000000,   0.08520,
,,,-04.870000000000,   0.08360,
,,,-04.860000000000,   0.08560,
,,,-04.850000000000,   0.08720,
,,,-04.840000000000,   0.08400,
,,,-04.830000000000,   0.08600,
,,,-04.820000000000,   0.08560,
,,,-04.810000000000,   0.08040,
,,,-04.800000000000,   0.08640,
,,,-04.790000000000,   0.08560,
,,,-04.780000000000,   0.08680,
,,,-04.770000000000,   0.08640,
,,,-04.760000000000,   0.08320,
,,,-04.750000000000,   0.08640,
,,,-04.740000000000,   0.08600,
,,,-04.730000000000,   0.08480,
,,,-04.720000000000,   0.08280,
,,,-04.710000000000,   0.08320,
,,,-04.700000000000,   0.08600,
,,,-04.690000000000,   0.08680,
,,,-04.680000000000,   0.08680,
,,,-04.670000000000,   0.08520,
,,,-04.660000000000,   0.08240,
,,,-04.650000000000,   0.08280,
,,,-04.640000000000,   0.08280,
,,,-04.630000000000,   0.08800,
,,,-04.620000000000,   0.08680,
,,,-04.610000000000,   0.08880,
,,,-04.600000000000,   0.08000,
,,,-04.590000000000,   0.08440,
,,,-04.580000000000,   0.08640,
,,,-04.570000000000,   0.08480,
,,,-04.560000000000,   0.08400,
,,,-04.550000000000,   0.08640,
,,,-04.540000000000,   0.08600,
,,,-04.530000000000,   0.08720,
,,,-04.520000000000,   0.08840,
,,,-04.510000000000,   0.08600,
,,,-04.500000000000,   0.08360,
,,,-04.490000000000,   0.08400,
,,,-04.480000000000,   0.08080,
,,,-04.470000000000,   0.08320,
,,,-04.460000000000,   0.08280,
,,,-04.450000000000,   0.08760,
,,,-04.440000000000,   0.08720,
,,,-04.430000000000,   0.08360,
,,,-04.420000000000,   0.08440,
,,,-04.410000000000,   0.08840,
,,,-04.400000000000,   0.08320,
,,,-04.390000000000,   0.08440,
,,,-04.380000000000,   0.08560,
,,,-04.370000000000,   0.08880,
,,,-04.360000000000,   0.08680,
,,,-04.350000000000,   0.08440,
,,,-04.340000000000,   0.08440,
,,,-04.330000000000,   0.08680,
,,,-04.320000000000,   0.08520,
,,,-04.310000000000,   0.08480,
,,,-04.300000000000,   0.08520,
,,,-04.290000000000,   0.08440,
,,,-04.280000000000,   0.08120,
,,,-04.270000000000,   0.08600,
,,,-04.260000000000,   0.08280,
,,,-04.250000000000,   0.08320,
,,,-04.240000000000,   0.08640,
,,,-04.230000000000,   0.08600,
,,,-04.220000000000,   0.08760,
,,,-04.210000000000,   0.08640,
,,,-04.200000000000,   0.08600,
,,,-04.190000000000,   0.08360,
,,,-04.180000000000,   0.08560,
,,,-04.170000000000,   0.08760,
,,,-04.160000000000,   0.08560,
,,,-04.150000000000,   0.08560,
,,,-04.140000000000,   0.08520,
,,,-04.130000000000,   0.08320,
,,,-04.120000000000,   0.05160,
,,,-04.110000000000,   0.05360,
,,,-04.100000000000,   0.05280,
,,,-04.090000000000,   0.05080,
,,,-04.080000000000,   0.05200,
,,,-04.070000000000,   0.05080,
,,,-04.060000000000,   0.05200,
,,,-04.050000000000,   0.05320,
,,,-04.040000000000,   0.05080,
,,,-04.030000000000,   0.05120,
,,,-04.020000000000,   0.05320,
,,,-04.010000000000,   0.05160,
,,,-04.000000000000,   0.05320,
,,,-03.990000000000,   0.05040,
,,,-03.980000000000,   0.04920,
,,,-03.970000000000,   0.05320,
,,,-03.960000000000,   0.05120,
,,,-03.950000000000,   0.05160,
,,,-03.940000000000,   0.05160,
,,,-03.930000000000,   0.05040,
,,,-03.920000000000,   0.05000,
,,,-03.910000000000,   0.05200,
,,,-03.900000000000,   0.05200,
,,,-03.890000000000,   0.05000,
,,,-03.880000000000,   0.05160,
,,,-03.870000000000,   0.05240,
,,,-03.860000000000,   0.05200,
,,,-03.850000000000,   0.05200,
,,,-03.840000000000,   0.05200,
,,,-03.830000000000,   0.05360,
,,,-03.820000000000,   0.05240,
,,,-03.810000000000,   0.05080,
,,,-03.800000000000,   0.05360,
,,,-03.790000000000,   0.05080,
,,,-03.780000000000,   0.04760,
,,,-03.770000000000,   0.05240,
,,,-03.760000000000,   0.05040,
,,,-03.750000000000,   0.05120,
,,,-03.740000000000,   0.05360,
,,,-03.730000000000,   0.05000,
,,,-03.720000000000,   0.05120,
,,,-03.710000000000,   0.05080,
,,,-03.700000000000,   0.04920,
,,,-03.690000000000,   0.04960,
,,,-03.680000000000,   0.05160,
,,,-03.670000000000,   0.05000,
,,,-03.660000000000,   0.05120,
,,,-03.650000000000,   0.05200,
,,,-03.640000000000,   0.05160,
,,,-03.630000000000,   0.05160,
,,,-03.620000000000,   0.08240,
,,,-03.610000000000,   0.08600,
,,,-03.600000000000,   0.08760,
,,,-03.590000000000,   0.08440,
,,,-03.580000000000,   0.08440,
,,,-03.570000000000,   0.08440,
,,,-03.560000000000,   0.08400,
,,,-03.550000000000,   0.08520,
,,,-03.540000000000,   0.08640,
,,,-03.530000000000,   0.08520,
,,,-03.520000000000,   0.08440,
,,,-03.510000000000,   0.08320,
,,,-03.500000000000,   0.08440,
,,,-03.490000000000,   0.08760,
,,,-03.480000000000,   0.08680,
,,,-03.470000000000,   0.08560,
,,,-03.460000000000,   0.08600,
,,,-03.450000000000,   0.08600,
,,,-03.440000000000,   0.08640,
,,,-03.430000000000,   0.08520,
,,,-03.420000000000,   0.08560,
,,,-03.410000000000,   0.08320,
,,,-03.400000000000,   0.08560,
,,,-03.390000000000,   0.08600,
,,,-03.380000000000,   0.08440,
,,,-03.370000000000,   0.08320,
,,,-03.360000000000,   0.08440,
,,,-03.350000000000,   0.08120,
,,,-03.340000000000,   0.08840,
,,,-03.330000000000,   0.08440,
,,,-03.320000000000,   0.08760,
,,,-03.310000000000,   0.08800,
,,,-03.300000000000,   0.08600,
,,,-03.290000000000,   0.08560,
,,,-03.280000000000,   0.08440,
,,,-03.270000000000,   0.08760,
,,,-03.260000000000,   0.08680,
,,,-03.250000000000,   0.08560,
,,,-03.240000000000,   0.08800,
,,,-03.230000000000,   0.08320,
,,,-03.220000000000,   0.08320,
,,,-03.210000000000,   0.08840,
,,,-03.200000000000,   0.08240,
,,,-03.190000000000,   0.08640,
,,,-03.180000000000,   0.08480,
,,,-03.170000000000,   0.08600,
,,,-03.160000000000,   0.08600,
,,,-03.150000000000,   0.08520,
,,,-03.140000000000,   0.08600,
,,,-03.130000000000,   0.08440,
,,,-03.120000000000,   0.08480,
,,,-03.110000000000,   0.08480,
,,,-03.100000000000,   0.08440,
,,,-03.090000000000,   0.08400,
,,,-03.080000000000,   0.08600,
,,,-03.070000000000,   0.08280,
,,,-03.060000000000,   0.08680,
,,,-03.050000000000,   0.08640,
,,,-03.040000000000,   0.08480,
,,,-03.030000000000,   0.08800,
,,,-03.020000000000,   0.08680,
,,,-03.010000000000,   0.08720,
,,,-03.000000000000,   0.08480,
,,,-02.990000000000,   0.08360,
,,,-02.980000000000,   0.08240,
,,,-02.970000000000,   0.08800,
,,,-02.960000000000,   0.08680,
,,,-02.950000000000,   0.08960,
,,,-02.940000000000,   0.08600,
,,,-02.930000000000,   0.08640,
,,,-02.920000000000,   0.08800,
,,,-02.910000000000,   0.09000,
,,,-02.900000000000,   0.08760,
,,,-02.890000000000,   0.08400,
,,,-02.880000000000,   0.08440,
,,,-02.870000000000,   0.08600,
,,,-02.860000000000,   0.08440,
,,,-02.850000000000,   0.08600,
,,,-02.840000000000,   0.08640,
,,,-02.830000000000,   0.08440,
,,,-02.820000000000,   0.08600,
,,,-02.810000000000,   0.08760,
,,,-02.800000000000,   0.08520,
,,,-02.790000000000,   0.08640,
,,,-02.780000000000,   0.08640,
,,,-02.770000000000,   0.08520,
,,,-02.760000000000,   0.08520,
,,,-02.750000000000,   0.08640,
,,,-02.740000000000,   0.08560,
,,,-02.730000000000,   0.08440,
,,,-02.720000000000,   0.08280,
,,,-02.710000000000,   0.08640,
,,,-02.700000000000,   0.08360,
,,,-02.690000000000,   0.08640,
,,,-02.680000000000,   0.08640,
,,,-02.670000000000,   0.08320,
,,,-02.660000000000,   0.08360,
,,,-02.650000000000,   0.08640,
,,,-02.640000000000,   0.08480,
,,,-02.630000000000,   0.08320,
,,,-02.620000000000,   0.08560,
,,,-02.610000000000,   0.08320,
,,,-02.600000000000,   0.08480,
,,,-02.590000000000,   0.08760,
,,,-02.580000000000,   0.08800,
,,,-02.570000000000,   0.08640,
,,,-02.560000000000,   0.08640,
,,,-02.550000000000,   0.08360,
,,,-02.540000000000,   0.08400,
,,,-02.530000000000,   0.08680,
,,,-02.520000000000,   0.08600,
,,,-02.510000000000,   0.08800,
,,,-02.500000000000,   0.08400,
,,,-02.490000000000,   0.08560,
,,,-02.480000000000,   0.08800,
,,,-02.470000000000,   0.08920,
,,,-02.460000000000,   0.08640,
,,,-02.450000000000,   0.08720,
,,,-02.440000000000,   0.08280,
,,,-02.430000000000,   0.08520,
,,,-02.420000000000,   0.08880,
,,,-02.410000000000,   0.08560,
,,,-02.400000000000,   0.08680,
,,,-02.390000000000,   0.08480,
,,,-02.380000000000,   0.08440,
,,,-02.370000000000,   0.08600,
,,,-02.360000000000,   0.08880,
,,,-02.350000000000,   0.08560,
,,,-02.340000000000,   0.08800,
,,,-02.330000000000,   0.08480,
,,,-02.320000000000,   0.08680,
,,,-02.310000000000,   0.08480,
,,,-02.300000000000,   0.08200,
,,,-02.290000000000,   0.08840,
,,,-02.280000000000,   0.08400,
,,,-02.270000000000,   0.08400,
,,,-02.260000000000,   0.08760,
,,,-02.250000000000,   0.08360,
,,,-02.240000000000,   0.08400,
,,,-02.230000000000,   0.08560,
,,,-02.220000000000,   0.08480,
,,,-02.210000000000,   0.08320,
,,,-02.200000000000,   0.08560,
,,,-02.190000000000,   0.08760,
,,,-02.180000000000,   0.08480,
,,,-02.170000000000,   0.08560,
,,,-02.160000000000,   0.08400,
,,,-02.150000000000,   0.08360,
,,,-02.140000000000,   0.08600,
,,,-02.130000000000,   0.08760,
,,,-02.120000000000,   0.08760,
,,,-02.110000000000,   0.08320,
,,,-02.100000000000,   0.08560,
,,,-02.090000000000,   0.08280,
,,,-02.080000000000,   0.08560,
,,,-02.070000000000,   0.08760,
,,,-02.060000000000,   0.08400,
,,,-02.050000000000,   0.08520,
,,,-02.040000000000,   0.08720,
,,,-02.030000000000,   0.08440,
,,,-02.020000000000,   0.08480,
,,,-02.010000000000,   0.08640,
,,,-02.000000000000,   0.08480,
,,,-01.990000000000,   0.08480,
,,,-01.980000000000,   0.08560,
,,,-01.970000000000,   0.08640,
,,,-01.960000000000,   0.08360,
,,,-01.950000000000,   0.08720,
,,,-01.940000000000,   0.08440,
,,,-01.930000000000,   0.08640,
,,,-01.920000000000,   0.08480,
,,,-01.910000000000,   0.08520,
,,,-01.900000000000,   0.08760,
,,,-01.890000000000,   0.08360,
,,,-01.880000000000,   0.08960,
,,,-01.870000000000,   0.08520,
,,,-01.860000000000,   0.08520,
,,,-01.850000000000,   0.08720,
,,,-01.840000000000,   0.08560,
,,,-01.830000000000,   0.08640,
,,,-01.820000000000,   0.08520,
,,,-01.810000000000,   0.08760,
,,,-01.800000000000,   0.08560,
,,,-01.790000000000,   0.08480,
,,,-01.780000000000,   0.08760,
,,,-01.770000000000,   0.08440,
,,,-01.760000000000,   0.08680,
,,,-01.750000000000,   0.08560,
,,,-01.740000000000,   0.08640,
,,,-01.730000000000,   0.08800,
,,,-01.720000000000,   0.08240,
,,,-01.710000000000,   0.08680,
,,,-01.700000000000,   0.08600,
,,,-01.690000000000,   0.08520,
,,,-01.680000000000,   0.08680,
,,,-01.670000000000,   0.08680,
,,,-01.660000000000,   0.08760,
,,,-01.650000000000,   0.08840,
,,,-01.640000000000,   0.08360,
,,,-01.630000000000,   0.08560,
,,,-01.620000000000,   0.08240,
,,,-01.610000000000,   0.08600,
,,,-01.600000000000,   0.08400,
,,,-01.590000000000,   0.08240,
,,,-01.580000000000,   0.08640,
,,,-01.570000000000,   0.08640,
,,,-01.560000000000,   0.08480,
,,,-01.550000000000,   0.08480,
,,,-01.540000000000,   0.08640,
,,,-01.530000000000,   0.08600,
,,,-01.520000000000,   0.08560,
,,,-01.510000000000,   0.08480,
,,,-01.500000000000,   0.08600,
,,,-01.490000000000,   0.08600,
,,,-01.480000000000,   0.08640,
,,,-01.470000000000,   0.08560,
,,,-01.460000000000,   0.08400,
,,,-01.450000000000,   0.08560,
,,,-01.440000000000,   0.08560,
,,,-01.430000000000,   0.08680,
,,,-01.420000000000,   0.08680,
,,,-01.410000000000,   0.08640,
,,,-01.400000000000,   0.08640,
,,,-01.390000000000,   0.08520,
,,,-01.380000000000,   0.08480,
,,,-01.370000000000,   0.08320,
,,,-01.360000000000,   0.08480,
,,,-01.350000000000,   0.08480,
,,,-01.340000000000,   0.08320,
,,,-01.330000000000,   0.08800,
,,,-01.320000000000,   0.08560,
,,,-01.310000000000,   0.08680,
,,,-01.300000000000,   0.08600,
,,,-01.290000000000,   0.08520,
,,,-01.280000000000,   0.08840,
,,,-01.270000000000,   0.08600,
,,,-01.260000000000,   0.08760,
,,,-01.250000000000,   0.08520,
,,,-01.240000000000,   0.08800,
,,,-01.230000000000,   0.08400,
,,,-01.220000000000,   0.08320,
,,,-01.210000000000,   0.08480,
,,,-01.200000000000,   0.08600,
,,,-01.190000000000,   0.08520,
,,,-01.180000000000,   0.08520,
,,,-01.170000000000,   0.08600,
,,,-01.160000000000,   0.08480,
,,,-01.150000000000,   0.08480,
,,,-01.140000000000,   0.08560,
,,,-01.130000000000,   0.08520,
,,,-01.120000000000,   0.08480,
,,,-01.110000000000,   0.08680,
,,,-01.100000000000,   0.08480,
,,,-01.090000000000,   0.08360,
,,,-01.080000000000,   0.08600,
,,,-01.070000000000,   0.08520,
,,,-01.060000000000,   0.08840,
,,,-01.050000000000,   0.08280,
,,,-01.040000000000,   0.08560,
,,,-01.030000000000,   0.08760,
,,,-01.020000000000,   0.08520,
,,,-01.010000000000,   0.08600,
,,,-01.000000000000,   0.08640,
,,,-00.990000000000,   0.08520,
,,,-00.980000000000,   0.08720,
,,,-00.970000000000,   0.08760,
,,,-00.960000000000,   0.08480,
,,,-00.950000000000,   0.08520,
,,,-00.940000000000,   0.08760,
,,,-00.930000000000,   0.08480,
,,,-00.920000000000,   0.08440,
,,,-00.910000000000,   0.08640,
,,,-00.900000000000,   0.08720,
,,,-00.890000000000,   0.08480,
,,,-00.880000000000,   0.08480,
,,,-00.870000000000,   0.08480,
,,,-00.860000000000,   0.08200,
,,,-00.850000000000,   0.08480,
,,,-00.840000000000,   0.08480,
,,,-00.830000000000,   0.08520,
